Date,Time,Temperature
2016-01-01,9,1
2016-01-01,13,1
2016-01-01,14,2
2016-01-01,15,2
2016-01-01,16,3
2016-01-01,19,2
2016-01-01,22,3
2016-01-02,10,5
2016-01-02,12,9
2016-01-02,13,9
2016-01-02,14,5
2016-01-02,15,4
2016-01-02,16,1
2016-01-03,8,2
2016-01-03,9,3
2016-01-03,10,6
2016-01-03,12,4
2016-01-03,13,3
2016-01-03,14,6
2016-01-03,15,2
2016-01-03,16,2
2016-01-03,17,1
2016-01-03,20,9
2016-01-03,23,1
2016-01-04,0,2
2016-01-04,2,4
2016-01-04,8,6
2016-01-04,9,43
2016-01-04,10,28
2016-01-04,11,5
2016-01-04,12,3
2016-01-04,14,6
2016-01-04,15,2
2016-01-04,16,1
2016-01-04,21,1
2016-01-05,9,5
2016-01-05,10,13
2016-01-05,11,4
2016-01-05,12,2
2016-01-05,13,11
2016-01-05,14,10
2016-01-05,15,1
2016-01-05,16,1
2016-01-05,19,1
2016-01-05,20,2
2016-01-05,22,1
2016-01-05,23,2
2016-01-06,0,1
2016-01-06,8,2
2016-01-06,9,5
2016-01-06,10,1
2016-01-06,11,1
2016-01-06,13,6
2016-01-06,14,7
2016-01-06,15,10
2016-01-06,16,1
2016-01-06,19,3
2016-01-06,20,3
2016-01-06,22,2
2016-01-07,1,3
2016-01-07,8,8
2016-01-07,9,9
2016-01-07,10,22
2016-01-07,11,13
2016-01-07,12,10
2016-01-07,13,23
2016-01-07,14,29
2016-01-07,15,16
2016-01-07,16,11
2016-01-07,17,3
2016-01-07,18,7
2016-01-07,19,11
2016-01-07,20,11
2016-01-07,21,17
2016-01-08,0,1
2016-01-08,7,4
2016-01-08,8,13
2016-01-08,9,17
2016-01-08,10,28
2016-01-08,11,16
2016-01-08,12,18
2016-01-08,13,24
2016-01-08,14,27
2016-01-08,15,18
2016-01-08,16,30
2016-01-08,17,6
2016-01-08,19,2
2016-01-08,20,15
2016-01-08,21,12
2016-01-08,22,10
2016-01-09,0,3
2016-01-09,8,10
2016-01-09,9,34
2016-01-09,10,13
2016-01-09,11,8
2016-01-09,12,10
2016-01-09,13,10
2016-01-09,14,16
2016-01-09,15,13
2016-01-09,16,10
2016-01-09,17,2
2016-01-09,19,19
2016-01-09,20,23
2016-01-09,21,26
2016-01-09,22,7
2016-01-09,23,1
2016-01-10,2,2
2016-01-10,3,2
2016-01-10,8,6
2016-01-10,9,15
2016-01-10,10,17
2016-01-10,11,14
2016-01-10,12,18
2016-01-10,13,21
2016-01-10,14,35
2016-01-10,15,16
2016-01-10,16,11
2016-01-10,19,10
2016-01-10,20,12
2016-01-10,21,13
2016-01-10,22,3
2016-01-10,23,1
2016-01-11,2,4
2016-01-11,8,5
2016-01-11,9,35
2016-01-11,10,32
2016-01-11,11,17
2016-01-11,12,7
2016-01-11,13,18
2016-01-11,14,22
2016-01-11,15,13
2016-01-11,16,15
2016-01-11,18,4
2016-01-11,19,2
2016-01-11,20,7
2016-01-11,21,4
2016-01-11,22,17
2016-01-11,23,6
2016-01-12,0,12
2016-01-12,1,10
2016-01-12,2,5
2016-01-12,8,13
2016-01-12,9,39
2016-01-12,10,33
2016-01-12,11,27
2016-01-12,12,24
2016-01-12,13,24
2016-01-12,14,30
2016-01-12,15,26
2016-01-12,16,13
2016-01-12,17,7
2016-01-12,18,1
2016-01-12,19,4
2016-01-12,20,12
2016-01-12,21,6
2016-01-12,22,7
2016-01-12,23,6
2016-01-13,0,18
2016-01-13,1,16
2016-01-13,2,2
2016-01-13,7,1
2016-01-13,8,3
2016-01-13,9,23
2016-01-13,10,18
2016-01-13,11,9
2016-01-13,12,20
2016-01-13,13,25
2016-01-13,14,29
2016-01-13,15,23
2016-01-13,16,29
2016-01-13,17,7
2016-01-13,18,3
2016-01-13,19,11
2016-01-13,20,25
2016-01-13,21,21
2016-01-13,22,3
2016-01-14,0,1
2016-01-14,1,5
2016-01-14,2,2
2016-01-14,8,1
2016-01-14,9,21
2016-01-14,10,44
2016-01-14,11,13
2016-01-14,12,29
2016-01-14,13,46
2016-01-14,14,28
2016-01-14,15,19
2016-01-14,16,26
2016-01-14,17,12
2016-01-14,18,5
2016-01-14,19,7
2016-01-14,20,12
2016-01-14,21,7
2016-01-14,23,3
2016-01-15,0,1
2016-01-15,1,2
2016-01-15,8,3
2016-01-15,9,15
2016-01-15,10,33
2016-01-15,11,26
2016-01-15,12,19
2016-01-15,13,24
2016-01-15,14,21
2016-01-15,15,9
2016-01-15,16,9
2016-01-15,17,1
2016-01-15,19,9
2016-01-15,20,17
2016-01-15,21,5
2016-01-15,22,5
2016-01-15,23,1
2016-01-16,0,4
2016-01-16,8,20
2016-01-16,9,21
2016-01-16,10,16
2016-01-16,11,3
2016-01-16,12,7
2016-01-16,13,18
2016-01-16,14,23
2016-01-16,15,9
2016-01-16,16,18
2016-01-16,17,11
2016-01-16,18,1
2016-01-16,19,6
2016-01-16,20,14
2016-01-16,21,3
2016-01-17,8,1
2016-01-17,10,6
2016-01-17,12,5
2016-01-17,13,3
2016-01-17,14,13
2016-01-17,16,1
2016-01-17,19,6
2016-01-17,20,13
2016-01-17,21,13
2016-01-17,22,1
2016-01-17,23,3
2016-01-18,0,2
2016-01-18,2,7
2016-01-18,3,2
2016-01-18,8,2
2016-01-18,9,5
2016-01-18,10,13
2016-01-18,11,6
2016-01-18,12,17
2016-01-18,13,15
2016-01-18,14,15
2016-01-18,15,2
2016-01-18,16,6
2016-01-18,17,4
2016-01-18,18,1
2016-01-18,19,2
2016-01-18,20,10
2016-01-18,21,3
2016-01-18,22,5
2016-01-19,0,3
2016-01-19,1,4
2016-01-19,8,5
2016-01-19,9,18
2016-01-19,10,24
2016-01-19,11,5
2016-01-19,12,20
2016-01-19,13,16
2016-01-19,14,12
2016-01-19,15,24
2016-01-19,16,20
2016-01-19,17,12
2016-01-19,18,1
2016-01-19,19,8
2016-01-19,20,7
2016-01-19,21,10
2016-01-19,22,8
2016-01-19,23,4
2016-01-20,2,1
2016-01-20,8,6
2016-01-20,9,20
2016-01-20,10,29
2016-01-20,11,10
2016-01-20,12,31
2016-01-20,13,20
2016-01-20,14,8
2016-01-20,15,28
2016-01-20,16,4
2016-01-20,17,7
2016-01-20,19,6
2016-01-20,20,22
2016-01-20,21,1
2016-01-20,22,2
2016-01-21,7,1
2016-01-21,8,2
2016-01-21,9,11
2016-01-21,10,20
2016-01-21,11,12
2016-01-21,12,19
2016-01-21,13,7
2016-01-21,14,18
2016-01-21,15,21
2016-01-21,16,14
2016-01-21,17,15
2016-01-21,18,4
2016-01-21,19,8
2016-01-21,20,14
2016-01-21,21,7
2016-01-21,23,1
2016-01-22,0,3
2016-01-22,1,2
2016-01-22,8,4
2016-01-22,9,7
2016-01-22,10,24
2016-01-22,11,10
2016-01-22,12,10
2016-01-22,13,30
2016-01-22,14,4
2016-01-22,15,21
2016-01-22,16,12
2016-01-22,17,12
2016-01-22,18,3
2016-01-22,19,6
2016-01-22,20,9
2016-01-22,21,11
2016-01-22,22,5
2016-01-22,23,1
2016-01-23,0,2
2016-01-23,2,1
2016-01-23,11,1
2016-01-23,12,6
2016-01-23,13,1
2016-01-23,14,2
2016-01-23,15,7
2016-01-23,16,1
2016-01-23,19,4
2016-01-23,20,11
2016-01-23,21,2
2016-01-23,22,10
2016-01-23,23,1
2016-01-24,0,6
2016-01-24,8,9
2016-01-24,9,27
2016-01-24,10,28
2016-01-24,11,1
2016-01-24,12,8
2016-01-24,13,14
2016-01-24,14,18
2016-01-24,15,28
2016-01-24,16,15
2016-01-24,17,5
2016-01-24,18,1
2016-01-24,19,17
2016-01-24,20,15
2016-01-24,21,8
2016-01-24,22,10
2016-01-24,23,5
2016-01-25,0,9
2016-01-25,7,1
2016-01-25,8,2
2016-01-25,9,29
2016-01-25,10,11
2016-01-25,11,24
2016-01-25,12,36
2016-01-25,13,16
2016-01-25,14,22
2016-01-25,15,33
2016-01-25,16,11
2016-01-25,17,4
2016-01-25,18,9
2016-01-25,19,13
2016-01-25,20,23
2016-01-25,21,25
2016-01-25,22,8
2016-01-26,1,4
2016-01-26,2,2
2016-01-26,8,7
2016-01-26,9,51
2016-01-26,10,39
2016-01-26,11,15
2016-01-26,12,8
2016-01-26,13,20
2016-01-26,14,32
2016-01-26,15,26
2016-01-26,16,13
2016-01-26,17,9
2016-01-26,18,4
2016-01-26,19,10
2016-01-26,20,29
2016-01-26,21,17
2016-01-26,22,6
2016-01-26,23,1
2016-01-27,0,3
2016-01-27,1,14
2016-01-27,8,12
2016-01-27,9,57
2016-01-27,10,53
2016-01-27,11,25
2016-01-27,12,15
2016-01-27,13,33
2016-01-27,14,33
2016-01-27,15,23
2016-01-27,16,18
2016-01-27,17,3
2016-01-27,19,14
2016-01-27,20,24
2016-01-27,21,14
2016-01-27,22,4
2016-01-27,23,6
2016-01-28,0,19
2016-01-28,1,9
2016-01-28,2,11
2016-01-28,3,5
2016-01-28,8,20
2016-01-28,9,35
2016-01-28,10,49
2016-01-28,11,6
2016-01-28,12,24
2016-01-28,13,19
2016-01-28,14,19
2016-01-28,15,21
2016-01-28,16,17
2016-01-28,17,6
2016-01-28,18,2
2016-01-28,19,8
2016-01-28,20,25
2016-01-28,21,6
2016-01-28,22,2
2016-01-28,23,6
2016-01-29,0,7
2016-01-29,3,4
2016-01-29,7,1
2016-01-29,8,14
2016-01-29,9,51
2016-01-29,10,42
2016-01-29,11,30
2016-01-29,12,26
2016-01-29,13,20
2016-01-29,14,33
2016-01-29,15,24
2016-01-29,16,15
2016-01-29,17,10
2016-01-29,18,3
2016-01-29,19,8
2016-01-29,20,19
2016-01-29,21,6
2016-01-29,22,5
2016-01-29,23,1
2016-01-30,0,4
2016-01-30,1,12
2016-01-30,2,2
2016-01-30,3,5
2016-01-30,8,33
2016-01-30,9,38
2016-01-30,10,35
2016-01-30,11,11
2016-01-30,12,39
2016-01-30,13,28
2016-01-30,14,17
2016-01-30,15,17
2016-01-30,16,14
2016-01-30,17,4
2016-01-30,19,6
2016-01-30,20,5
2016-01-30,21,3
2016-01-30,22,4
2016-01-31,0,2
2016-01-31,1,1
2016-01-31,2,5
2016-01-31,8,12
2016-01-31,9,5
2016-01-31,10,19
2016-01-31,11,2
2016-01-31,12,5
2016-01-31,13,12
2016-01-31,14,23
2016-01-31,15,9
2016-01-31,16,6
2016-01-31,17,2
2016-01-31,18,4
2016-01-31,19,4
2016-01-31,20,23
2016-01-31,21,14
2016-01-31,22,2
2016-01-31,23,1
2016-02-01,1,2
2016-02-01,4,4
2016-02-01,5,1
2016-02-01,8,3
2016-02-01,9,6
2016-02-01,10,9
2016-02-01,11,8
2016-02-01,12,13
2016-02-01,13,36
2016-02-01,14,26
2016-02-01,15,45
2016-02-01,16,23
2016-02-01,17,18
2016-02-01,18,1
2016-02-01,19,10
2016-02-01,20,38
2016-02-01,21,24
2016-02-01,22,5
2016-02-01,23,1
2016-02-02,0,6
2016-02-02,2,8
2016-02-02,3,9
2016-02-02,5,1
2016-02-02,8,13
2016-02-02,9,29
2016-02-02,10,39
2016-02-02,11,19
2016-02-02,12,38
2016-02-02,13,60
2016-02-02,14,53
2016-02-02,15,22
2016-02-02,16,10
2016-02-02,17,3
2016-02-02,18,2
2016-02-02,19,15
2016-02-02,20,13
2016-02-02,21,15
2016-02-02,22,8
2016-02-02,23,4
2016-02-03,0,3
2016-02-03,2,2
2016-02-03,8,6
2016-02-03,9,44
2016-02-03,10,35
2016-02-03,11,17
2016-02-03,12,18
2016-02-03,13,38
2016-02-03,14,23
2016-02-03,15,32
2016-02-03,16,8
2016-02-03,17,8
2016-02-03,19,16
2016-02-03,20,34
2016-02-03,21,8
2016-02-03,22,3
2016-02-03,23,5
2016-02-04,8,8
2016-02-04,9,20
2016-02-04,10,32
2016-02-04,11,13
2016-02-04,12,18
2016-02-04,13,24
2016-02-04,14,24
2016-02-04,15,30
2016-02-04,16,19
2016-02-04,17,5
2016-02-04,18,2
2016-02-04,19,11
2016-02-04,20,8
2016-02-04,21,17
2016-02-04,23,9
2016-02-05,0,21
2016-02-05,1,8
2016-02-05,2,5
2016-02-05,7,1
2016-02-05,8,8
2016-02-05,9,40
2016-02-05,10,41
2016-02-05,11,23
2016-02-05,12,22
2016-02-05,13,34
2016-02-05,14,26
2016-02-05,15,23
2016-02-05,16,6
2016-02-05,17,6
2016-02-05,19,11
2016-02-05,20,19
2016-02-05,21,10
2016-02-05,22,4
2016-02-05,23,13
2016-02-06,0,3
2016-02-06,2,5
2016-02-06,3,8
2016-02-06,5,1
2016-02-06,8,6
2016-02-06,9,30
2016-02-06,10,26
2016-02-06,11,1
2016-02-06,12,27
2016-02-06,13,24
2016-02-06,14,13
2016-02-06,15,12
2016-02-06,16,5
2016-02-06,17,3
2016-02-06,19,2
2016-02-06,20,11
2016-02-06,21,12
2016-02-06,22,9
2016-02-06,23,3
2016-02-07,1,10
2016-02-07,2,7
2016-02-07,3,3
2016-02-07,4,1
2016-02-07,8,13
2016-02-07,9,27
2016-02-07,10,22
2016-02-07,11,17
2016-02-07,12,30
2016-02-07,13,42
2016-02-07,14,21
2016-02-07,15,19
2016-02-07,16,14
2016-02-07,17,11
2016-02-07,19,5
2016-02-07,20,22
2016-02-07,21,18
2016-02-07,22,6
2016-02-07,23,2
2016-02-08,0,6
2016-02-08,1,1
2016-02-08,8,3
2016-02-08,9,11
2016-02-08,10,36
2016-02-08,11,22
2016-02-08,12,37
2016-02-08,13,18
2016-02-08,14,27
2016-02-08,15,24
2016-02-08,16,14
2016-02-08,17,14
2016-02-08,18,9
2016-02-08,19,7
2016-02-08,20,17
2016-02-08,21,22
2016-02-08,22,18
2016-02-08,23,1
2016-02-09,0,6
2016-02-09,2,1
2016-02-09,3,1
2016-02-09,8,14
2016-02-09,9,26
2016-02-09,10,47
2016-02-09,11,30
2016-02-09,12,15
2016-02-09,13,22
2016-02-09,14,13
2016-02-09,15,27
2016-02-09,16,38
2016-02-09,17,11
2016-02-09,18,1
2016-02-09,19,27
2016-02-09,20,30
2016-02-09,21,13
2016-02-09,22,14
2016-02-09,23,1
2016-02-10,8,7
2016-02-10,9,19
2016-02-10,10,50
2016-02-10,11,16
2016-02-10,12,36
2016-02-10,13,37
2016-02-10,14,23
2016-02-10,15,18
2016-02-10,16,15
2016-02-10,17,8
2016-02-10,18,2
2016-02-10,19,29
2016-02-10,20,17
2016-02-10,21,13
2016-02-10,22,3
2016-02-10,23,1
2016-02-11,0,3
2016-02-11,1,1
2016-02-11,2,2
2016-02-11,8,10
2016-02-11,9,47
2016-02-11,10,23
2016-02-11,11,16
2016-02-11,12,40
2016-02-11,13,50
2016-02-11,14,42
2016-02-11,15,42
2016-02-11,16,33
2016-02-11,17,8
2016-02-11,18,7
2016-02-11,19,21
2016-02-11,20,26
2016-02-11,21,11
2016-02-11,22,5
2016-02-11,23,7
2016-02-12,0,2
2016-02-12,8,11
2016-02-12,9,53
2016-02-12,10,24
2016-02-12,11,20
2016-02-12,12,20
2016-02-12,13,19
2016-02-12,14,33
2016-02-12,15,20
2016-02-12,16,9
2016-02-12,17,7
2016-02-12,19,9
2016-02-12,20,19
2016-02-12,21,12
2016-02-12,22,2
2016-02-12,23,4
2016-02-13,0,1
2016-02-13,1,10
2016-02-13,3,1
2016-02-13,8,8
2016-02-13,9,32
2016-02-13,10,14
2016-02-13,11,20
2016-02-13,12,37
2016-02-13,13,15
2016-02-13,14,16
2016-02-13,15,31
2016-02-13,16,11
2016-02-13,17,17
2016-02-13,19,9
2016-02-13,20,15
2016-02-13,21,12
2016-02-13,22,4
2016-02-13,23,1
2016-02-14,1,2
2016-02-14,8,11
2016-02-14,9,24
2016-02-14,10,22
2016-02-14,11,12
2016-02-14,12,24
2016-02-14,13,23
2016-02-14,14,39
2016-02-14,15,22
2016-02-14,16,11
2016-02-14,17,3
2016-02-14,19,12
2016-02-14,20,10
2016-02-14,21,10
2016-02-14,22,2
2016-02-15,0,1
2016-02-15,2,1
2016-02-15,8,5
2016-02-15,9,22
2016-02-15,10,20
2016-02-15,11,20
2016-02-15,12,13
2016-02-15,13,29
2016-02-15,14,55
2016-02-15,15,45
2016-02-15,16,30
2016-02-15,17,10
2016-02-15,19,13
2016-02-15,20,21
2016-02-15,21,5
2016-02-15,22,2
2016-02-16,1,2
2016-02-16,2,5
2016-02-16,8,6
2016-02-16,9,33
2016-02-16,10,49
2016-02-16,11,18
2016-02-16,12,46
2016-02-16,13,30
2016-02-16,14,14
2016-02-16,15,20
2016-02-16,16,30
2016-02-16,17,13
2016-02-16,18,1
2016-02-16,19,14
2016-02-16,20,23
2016-02-16,21,22
2016-02-16,22,2
2016-02-16,23,4
2016-02-17,0,2
2016-02-17,1,7
2016-02-17,4,8
2016-02-17,5,2
2016-02-17,8,7
2016-02-17,9,7
2016-02-17,11,2
2016-02-17,12,2
2016-02-17,13,5
2016-02-17,14,11
2016-02-17,15,18
2016-02-17,16,12
2016-02-17,17,16
2016-02-17,19,7
2016-02-17,20,14
2016-02-17,21,24
2016-02-17,22,2
2016-02-18,0,6
2016-02-18,1,1
2016-02-18,4,3
2016-02-18,5,4
2016-02-18,8,3
2016-02-18,9,33
2016-02-18,10,22
2016-02-18,11,29
2016-02-18,12,39
2016-02-18,13,56
2016-02-18,14,25
2016-02-18,15,27
2016-02-18,16,11
2016-02-18,17,9
2016-02-18,18,13
2016-02-18,19,16
2016-02-18,20,27
2016-02-18,21,30
2016-02-18,22,22
2016-02-18,23,3
2016-02-19,8,3
2016-02-19,9,20
2016-02-19,10,54
2016-02-19,11,26
2016-02-19,12,28
2016-02-19,13,20
2016-02-19,14,32
2016-02-19,15,31
2016-02-19,16,24
2016-02-19,17,13
2016-02-19,19,23
2016-02-19,20,19
2016-02-19,21,6
2016-02-19,22,4
2016-02-19,23,7
2016-02-20,1,1
2016-02-20,2,5
2016-02-20,8,20
2016-02-20,9,22
2016-02-20,10,15
2016-02-20,11,19
2016-02-20,12,13
2016-02-20,13,36
2016-02-20,14,11
2016-02-20,15,28
2016-02-20,16,4
2016-02-20,17,4
2016-02-20,19,8
2016-02-20,20,15
2016-02-20,21,10
2016-02-20,22,4
2016-02-20,23,15
2016-02-21,0,3
2016-02-21,1,3
2016-02-21,2,5
2016-02-21,4,1
2016-02-21,8,18
2016-02-21,9,22
2016-02-21,10,26
2016-02-21,11,11
2016-02-21,12,9
2016-02-21,13,23
2016-02-21,14,32
2016-02-21,15,22
2016-02-21,16,14
2016-02-21,17,9
2016-02-21,19,1
2016-02-21,20,22
2016-02-21,21,8
2016-02-21,22,2
2016-02-21,23,1
2016-02-22,0,1
2016-02-22,2,4
2016-02-22,8,2
2016-02-22,9,42
2016-02-22,10,71
2016-02-22,11,13
2016-02-22,12,9
2016-02-22,13,21
2016-02-22,14,23
2016-02-22,15,34
2016-02-22,16,27
2016-02-22,17,10
2016-02-22,18,2
2016-02-22,19,14
2016-02-22,20,17
2016-02-22,21,9
2016-02-22,22,3
2016-02-23,0,7
2016-02-23,1,11
2016-02-23,2,6
2016-02-23,8,4
2016-02-23,9,14
2016-02-23,10,12
2016-02-23,11,11
2016-02-23,12,7
2016-02-23,13,22
2016-02-23,14,49
2016-02-23,15,23
2016-02-23,16,5
2016-02-23,17,4
2016-02-23,19,6
2016-02-23,20,9
2016-02-23,21,13
2016-02-23,23,2
2016-02-24,0,9
2016-02-24,1,3
2016-02-24,6,1
2016-02-24,8,9
2016-02-24,9,32
2016-02-24,10,50
2016-02-24,11,21
2016-02-24,12,30
2016-02-24,13,28
2016-02-24,14,18
2016-02-24,15,19
2016-02-24,16,34
2016-02-24,17,20
2016-02-24,18,1
2016-02-24,19,9
2016-02-24,20,18
2016-02-24,21,16
2016-02-24,22,3
2016-02-24,23,1
2016-02-25,0,5
2016-02-25,1,6
2016-02-25,2,2
2016-02-25,5,7
2016-02-25,8,8
2016-02-25,9,33
2016-02-25,10,42
2016-02-25,11,12
2016-02-25,12,32
2016-02-25,13,37
2016-02-25,14,44
2016-02-25,15,19
2016-02-25,16,17
2016-02-25,17,19
2016-02-25,18,3
2016-02-25,19,12
2016-02-25,20,33
2016-02-25,21,22
2016-02-25,22,8
2016-02-25,23,2
2016-02-26,0,8
2016-02-26,1,9
2016-02-26,3,1
2016-02-26,8,10
2016-02-26,9,18
2016-02-26,10,48
2016-02-26,11,10
2016-02-26,12,14
2016-02-26,13,38
2016-02-26,14,23
2016-02-26,15,23
2016-02-26,16,31
2016-02-26,17,4
2016-02-26,19,27
2016-02-26,20,21
2016-02-26,21,11
2016-02-26,22,7
2016-02-26,23,4
2016-02-27,0,2
2016-02-27,2,1
2016-02-27,8,26
2016-02-27,9,38
2016-02-27,10,22
2016-02-27,11,4
2016-02-27,12,7
2016-02-27,13,23
2016-02-27,14,13
2016-02-27,15,7
2016-02-27,16,4
2016-02-27,17,7
2016-02-27,19,32
2016-02-27,20,17
2016-02-27,21,19
2016-02-27,22,16
2016-02-27,23,1
2016-02-28,0,10
2016-02-28,8,25
2016-02-28,9,22
2016-02-28,10,14
2016-02-28,11,12
2016-02-28,12,26
2016-02-28,13,20
2016-02-28,14,15
2016-02-28,15,7
2016-02-28,16,12
2016-02-28,17,9
2016-02-28,19,3
2016-02-28,20,16
2016-02-28,21,5
2016-02-28,22,4
2016-02-28,23,14
2016-02-29,0,8
2016-02-29,8,17
2016-02-29,9,32
2016-02-29,10,47
2016-02-29,11,16
2016-02-29,12,15
2016-02-29,13,26
2016-02-29,14,18
2016-02-29,15,11
2016-02-29,16,3
2016-02-29,17,2
2016-02-29,19,1
2016-02-29,20,1
2016-03-01,8,4
2016-03-01,9,5
2016-03-01,10,5
2016-03-01,11,7
2016-03-01,12,14
2016-03-01,13,16
2016-03-01,14,12
2016-03-01,15,6
2016-03-01,16,8
2016-03-01,17,8
2016-03-01,18,1
2016-03-01,20,10
2016-03-01,21,4
2016-03-01,22,1
2016-03-02,1,2
2016-03-02,2,1
2016-03-02,7,2
2016-03-02,8,11
2016-03-02,9,24
2016-03-02,10,38
2016-03-02,11,12
2016-03-02,12,34
2016-03-02,13,45
2016-03-02,14,53
2016-03-02,15,39
2016-03-02,16,15
2016-03-02,17,15
2016-03-02,18,2
2016-03-02,19,1
2016-03-02,20,6
2016-03-02,21,3
2016-03-02,22,9
2016-03-03,0,9
2016-03-03,2,2
2016-03-03,8,23
2016-03-03,9,26
2016-03-03,10,14
2016-03-03,11,26
2016-03-03,12,25
2016-03-03,13,30
2016-03-03,14,26
2016-03-03,15,17
2016-03-03,16,21
2016-03-03,17,2
2016-03-03,19,11
2016-03-03,20,15
2016-03-03,21,25
2016-03-03,22,3
2016-03-03,23,2
2016-03-04,0,3
2016-03-04,3,3
2016-03-04,8,29
2016-03-04,9,31
2016-03-04,10,54
2016-03-04,11,29
2016-03-04,12,33
2016-03-04,13,28
2016-03-04,14,25
2016-03-04,15,35
2016-03-04,16,26
2016-03-04,17,13
2016-03-04,19,17
2016-03-04,20,24
2016-03-04,21,13
2016-03-04,22,13
2016-03-04,23,3
2016-03-05,0,6
2016-03-05,1,10
2016-03-05,8,27
2016-03-05,9,22
2016-03-05,10,26
2016-03-05,11,15
2016-03-05,12,21
2016-03-05,13,27
2016-03-05,14,12
2016-03-05,15,8
2016-03-05,16,15
2016-03-05,17,12
2016-03-05,18,3
2016-03-05,19,15
2016-03-05,20,22
2016-03-05,21,14
2016-03-05,22,3
2016-03-05,23,10
2016-03-06,0,1
2016-03-06,1,1
2016-03-06,8,10
2016-03-06,9,13
2016-03-06,10,30
2016-03-06,11,8
2016-03-06,12,9
2016-03-06,13,17
2016-03-06,14,16
2016-03-06,15,13
2016-03-06,16,5
2016-03-06,17,2
2016-03-06,19,31
2016-03-06,20,24
2016-03-06,21,10
2016-03-06,22,2
2016-03-06,23,1
2016-03-07,0,5
2016-03-07,2,2
2016-03-07,8,5
2016-03-07,9,23
2016-03-07,10,29
2016-03-07,11,15
2016-03-07,12,15
2016-03-07,13,13
2016-03-07,14,13
2016-03-07,15,7
2016-03-07,16,25
2016-03-07,17,23
2016-03-07,19,7
2016-03-07,20,11
2016-03-07,21,8
2016-03-07,22,3
2016-03-07,23,5
2016-03-08,0,7
2016-03-08,1,6
2016-03-08,2,3
2016-03-08,3,1
2016-03-08,8,1
2016-03-08,9,4
2016-03-08,10,25
2016-03-08,11,12
2016-03-08,12,6
2016-03-08,13,13
2016-03-08,14,21
2016-03-08,15,26
2016-03-08,16,8
2016-03-08,17,9
2016-03-08,18,1
2016-03-08,19,10
2016-03-08,20,12
2016-03-08,21,16
2016-03-08,22,10
2016-03-08,23,10
2016-03-09,0,3
2016-03-09,1,10
2016-03-09,8,5
2016-03-09,9,51
2016-03-09,10,43
2016-03-09,11,16
2016-03-09,12,15
2016-03-09,13,26
2016-03-09,14,22
2016-03-09,15,32
2016-03-09,16,30
2016-03-09,17,6
2016-03-09,18,1
2016-03-09,19,12
2016-03-09,20,14
2016-03-09,21,9
2016-03-09,22,6
2016-03-09,23,2
2016-03-10,0,8
2016-03-10,1,13
2016-03-10,2,3
2016-03-10,3,3
2016-03-10,8,11
2016-03-10,9,33
2016-03-10,10,35
2016-03-10,11,32
2016-03-10,12,31
2016-03-10,13,25
2016-03-10,14,12
2016-03-10,15,24
2016-03-10,16,16
2016-03-10,17,6
2016-03-10,18,2
2016-03-10,19,6
2016-03-10,20,25
2016-03-10,21,30
2016-03-10,22,7
2016-03-10,23,1
2016-03-11,0,2
2016-03-11,2,1
2016-03-11,8,15
2016-03-11,9,37
2016-03-11,10,26
2016-03-11,11,14
2016-03-11,12,7
2016-03-11,13,46
2016-03-11,14,30
2016-03-11,15,26
2016-03-11,16,16
2016-03-11,17,19
2016-03-11,19,6
2016-03-11,20,46
2016-03-11,21,14
2016-03-11,22,7
2016-03-12,0,3
2016-03-12,3,5
2016-03-12,8,15
2016-03-12,9,26
2016-03-12,10,54
2016-03-12,11,21
2016-03-12,12,19
2016-03-12,13,24
2016-03-12,14,25
2016-03-12,15,10
2016-03-12,16,4
2016-03-12,17,8
2016-03-12,19,10
2016-03-12,20,12
2016-03-12,21,20
2016-03-12,22,8
2016-03-12,23,1
2016-03-13,0,2
2016-03-13,7,2
2016-03-13,8,4
2016-03-13,9,22
2016-03-13,10,7
2016-03-13,11,9
2016-03-13,12,9
2016-03-13,13,12
2016-03-13,14,10
2016-03-13,15,6
2016-03-13,16,3
2016-03-13,17,9
2016-03-13,19,21
2016-03-13,20,42
2016-03-13,21,10
2016-03-13,22,5
2016-03-14,1,1
2016-03-14,2,10
2016-03-14,3,1
2016-03-14,4,1
2016-03-14,8,5
2016-03-14,9,55
2016-03-14,10,58
2016-03-14,11,33
2016-03-14,12,28
2016-03-14,13,16
2016-03-14,14,23
2016-03-14,15,29
2016-03-14,16,18
2016-03-14,17,11
2016-03-14,18,2
2016-03-14,19,17
2016-03-14,20,13
2016-03-14,21,14
2016-03-14,22,7
2016-03-14,23,3
2016-03-15,1,1
2016-03-15,8,24
2016-03-15,9,27
2016-03-15,10,26
2016-03-15,11,12
2016-03-15,12,22
2016-03-15,13,50
2016-03-15,14,29
2016-03-15,15,22
2016-03-15,16,15
2016-03-15,17,7
2016-03-15,18,1
2016-03-15,19,5
2016-03-15,20,9
2016-03-15,21,21
2016-03-15,22,3
2016-03-15,23,6
2016-03-16,0,3
2016-03-16,1,2
2016-03-16,8,8
2016-03-16,9,27
2016-03-16,10,28
2016-03-16,11,29
2016-03-16,12,16
2016-03-16,13,27
2016-03-16,14,46
2016-03-16,15,21
2016-03-16,16,17
2016-03-16,17,12
2016-03-16,18,3
2016-03-16,19,12
2016-03-16,20,15
2016-03-16,21,8
2016-03-16,22,2
2016-03-17,0,2
2016-03-17,1,3
2016-03-17,8,7
2016-03-17,9,21
2016-03-17,10,43
2016-03-17,11,6
2016-03-17,12,27
2016-03-17,13,30
2016-03-17,14,51
2016-03-17,15,48
2016-03-17,16,18
2016-03-17,17,16
2016-03-17,19,9
2016-03-17,20,20
2016-03-17,21,13
2016-03-17,22,5
2016-03-18,0,5
2016-03-18,2,4
2016-03-18,8,6
2016-03-18,9,26
2016-03-18,10,40
2016-03-18,11,21
2016-03-18,12,13
2016-03-18,13,35
2016-03-18,14,48
2016-03-18,15,28
2016-03-18,16,24
2016-03-18,17,9
2016-03-18,18,1
2016-03-18,19,7
2016-03-18,20,6
2016-03-18,21,17
2016-03-18,22,2
2016-03-19,1,1
2016-03-19,3,3
2016-03-19,5,3
2016-03-19,8,17
2016-03-19,9,26
2016-03-19,10,55
2016-03-19,11,5
2016-03-19,12,28
2016-03-19,13,33
2016-03-19,14,23
2016-03-19,15,10
2016-03-19,16,7
2016-03-19,17,8
2016-03-19,19,5
2016-03-19,20,12
2016-03-19,21,21
2016-03-19,22,6
2016-03-19,23,1
2016-03-20,0,1
2016-03-20,1,2
2016-03-20,2,2
2016-03-20,3,8
2016-03-20,4,9
2016-03-20,5,1
2016-03-20,8,6
2016-03-20,9,30
2016-03-20,10,37
2016-03-20,11,13
2016-03-20,12,29
2016-03-20,13,28
2016-03-20,14,6
2016-03-20,15,32
2016-03-20,16,18
2016-03-20,17,15
2016-03-20,18,4
2016-03-20,19,8
2016-03-20,20,18
2016-03-20,21,24
2016-03-20,22,14
2016-03-20,23,1
2016-03-21,0,4
2016-03-21,8,6
2016-03-21,9,23
2016-03-21,10,32
2016-03-21,11,9
2016-03-21,12,19
2016-03-21,13,42
2016-03-21,14,24
2016-03-21,15,32
2016-03-21,16,12
2016-03-21,17,11
2016-03-21,19,22
2016-03-21,20,17
2016-03-21,21,25
2016-03-21,22,7
2016-03-21,23,1
2016-03-22,1,3
2016-03-22,2,1
2016-03-22,7,2
2016-03-22,8,9
2016-03-22,9,32
2016-03-22,10,65
2016-03-22,11,30
2016-03-22,12,31
2016-03-22,13,37
2016-03-22,14,24
2016-03-22,15,49
2016-03-22,16,11
2016-03-22,17,6
2016-03-22,18,6
2016-03-22,19,8
2016-03-22,20,19
2016-03-22,21,8
2016-03-22,22,9
2016-03-22,23,1
2016-03-23,0,1
2016-03-23,1,2
2016-03-23,8,1
2016-03-23,9,20
2016-03-23,10,24
2016-03-23,11,9
2016-03-23,12,7
2016-03-23,13,9
2016-03-23,14,18
2016-03-23,15,8
2016-03-23,16,12
2016-03-23,17,9
2016-03-23,18,4
2016-03-23,19,4
2016-03-23,20,9
2016-03-23,21,11
2016-03-23,22,2
2016-03-23,23,5
2016-03-24,0,4
2016-03-24,1,27
2016-03-24,2,10
2016-03-24,8,8
2016-03-24,9,14
2016-03-24,10,18
2016-03-24,11,7
2016-03-24,12,32
2016-03-24,13,14
2016-03-24,14,38
2016-03-24,15,8
2016-03-24,16,10
2016-03-24,17,14
2016-03-24,19,5
2016-03-24,20,6
2016-03-24,21,14
2016-03-24,22,7
2016-03-24,23,5
2016-03-25,0,1
2016-03-25,1,3
2016-03-25,2,5
2016-03-25,3,2
2016-03-25,8,6
2016-03-25,9,8
2016-03-25,10,5
2016-03-25,11,5
2016-03-25,12,3
2016-03-25,13,8
2016-03-25,14,9
2016-03-25,15,3
2016-03-25,16,10
2016-03-25,17,6
2016-03-25,19,3
2016-03-25,20,2
2016-03-25,21,4
2016-03-25,22,4
2016-03-25,23,1
2016-03-26,0,4
2016-03-26,1,1
2016-03-26,8,22
2016-03-26,9,34
2016-03-26,10,19
2016-03-26,11,14
2016-03-26,12,18
2016-03-26,13,12
2016-03-26,14,6
2016-03-26,15,11
2016-03-26,16,4
2016-03-26,19,3
2016-03-26,20,4
2016-03-26,21,4
2016-03-26,22,3
2016-03-27,0,3
2016-03-27,1,6
2016-03-27,2,1
2016-03-27,8,5
2016-03-27,9,15
2016-03-27,10,13
2016-03-27,11,8
2016-03-27,12,24
2016-03-27,13,14
2016-03-27,14,25
2016-03-27,15,18
2016-03-27,16,11
2016-03-27,17,8
2016-03-27,19,4
2016-03-27,20,15
2016-03-27,21,9
2016-03-27,22,6
2016-03-27,23,2
2016-03-28,0,5
2016-03-28,1,1
2016-03-28,2,4
2016-03-28,4,1
2016-03-28,8,2
2016-03-28,9,12
2016-03-28,10,10
2016-03-28,11,2
2016-03-28,12,7
2016-03-28,13,13
2016-03-28,14,17
2016-03-28,15,12
2016-03-28,16,2
2016-03-28,17,2
2016-03-28,18,1
2016-03-28,19,2
2016-03-28,20,14
2016-03-28,21,3
2016-03-28,22,13
2016-03-29,0,7
2016-03-29,1,2
2016-03-29,2,2
2016-03-29,8,3
2016-03-29,9,9
2016-03-29,10,18
2016-03-29,11,22
2016-03-29,12,8
2016-03-29,13,9
2016-03-29,14,9
2016-03-29,15,11
2016-03-29,16,3
2016-03-29,17,11
2016-03-29,19,8
2016-03-29,20,8
2016-03-29,21,17
2016-03-29,22,11
2016-03-29,23,6
2016-03-30,0,6
2016-03-30,1,6
2016-03-30,2,9
2016-03-30,3,1
2016-03-30,8,16
2016-03-30,9,31
2016-03-30,10,36
2016-03-30,11,9
2016-03-30,12,14
2016-03-30,13,6
2016-03-30,14,20
2016-03-30,15,24
2016-03-30,16,16
2016-03-30,17,10
2016-03-30,18,2
2016-03-30,19,10
2016-03-30,20,17
2016-03-30,21,9
2016-03-30,22,4
2016-03-30,23,4
2016-03-31,3,1
2016-03-31,8,3
2016-03-31,9,8
2016-03-31,10,17
2016-03-31,11,8
2016-03-31,12,10
2016-03-31,13,15
2016-03-31,14,13
2016-03-31,15,18
2016-03-31,16,3
2016-03-31,17,19
2016-03-31,18,2
2016-03-31,19,10
2016-03-31,20,9
2016-03-31,21,19
2016-03-31,22,6
2016-03-31,23,3
2016-04-01,0,6
2016-04-01,1,7
2016-04-01,2,11
2016-04-01,3,3
2016-04-01,8,2
2016-04-01,9,5
2016-04-01,10,28
2016-04-01,11,8
2016-04-01,12,9
2016-04-01,13,14
2016-04-01,14,15
2016-04-01,15,10
2016-04-01,16,11
2016-04-01,17,7
2016-04-01,18,1
2016-04-01,19,5
2016-04-01,20,5
2016-04-01,21,7
2016-04-01,22,9
2016-04-01,23,9
2016-04-02,0,7
2016-04-02,2,8
2016-04-02,9,4
2016-04-02,10,10
2016-04-02,11,9
2016-04-02,12,4
2016-04-02,13,12
2016-04-02,14,20
2016-04-02,15,26
2016-04-02,16,9
2016-04-02,17,8
2016-04-02,18,9
2016-04-02,19,2
2016-04-02,20,7
2016-04-02,21,5
2016-04-02,22,7
2016-04-02,23,1
2016-04-03,0,3
2016-04-03,1,7
2016-04-03,2,3
2016-04-03,8,23
2016-04-03,9,15
2016-04-03,10,13
2016-04-03,11,7
2016-04-03,12,6
2016-04-03,13,23
2016-04-03,14,32
2016-04-03,15,38
2016-04-03,16,7
2016-04-03,17,6
2016-04-03,19,9
2016-04-03,20,10
2016-04-03,21,6
2016-04-03,22,8
2016-04-04,0,1
2016-04-04,1,1
2016-04-04,8,8
2016-04-04,9,35
2016-04-04,10,39
2016-04-04,11,17
2016-04-04,12,24
2016-04-04,13,26
2016-04-04,14,32
2016-04-04,15,23
2016-04-04,16,27
2016-04-04,17,8
2016-04-04,18,5
2016-04-04,19,22
2016-04-04,20,33
2016-04-04,21,25
2016-04-04,22,6
2016-04-04,23,7
2016-04-05,0,14
2016-04-05,1,17
2016-04-05,2,1
2016-04-05,8,12
2016-04-05,9,35
2016-04-05,10,43
2016-04-05,11,12
2016-04-05,12,23
2016-04-05,13,38
2016-04-05,14,25
2016-04-05,15,18
2016-04-05,16,25
2016-04-05,17,22
2016-04-05,19,18
2016-04-05,20,17
2016-04-05,21,19
2016-04-05,22,23
2016-04-05,23,1
2016-04-06,0,16
2016-04-06,1,10
2016-04-06,2,7
2016-04-06,3,1
2016-04-06,8,5
2016-04-06,9,16
2016-04-06,10,20
2016-04-06,11,10
2016-04-06,12,8
2016-04-06,13,47
2016-04-06,14,43
2016-04-06,15,23
2016-04-06,16,24
2016-04-06,17,13
2016-04-06,18,6
2016-04-06,19,27
2016-04-06,20,35
2016-04-06,21,18
2016-04-06,22,2
2016-04-06,23,5
2016-04-07,0,3
2016-04-07,1,6
2016-04-07,8,1
2016-04-07,9,22
2016-04-07,10,41
2016-04-07,11,26
2016-04-07,12,13
2016-04-07,13,50
2016-04-07,14,33
2016-04-07,15,16
2016-04-07,16,24
2016-04-07,17,13
2016-04-07,18,3
2016-04-07,19,29
2016-04-07,20,26
2016-04-07,21,27
2016-04-07,22,13
2016-04-07,23,6
2016-04-08,0,2
2016-04-08,1,3
2016-04-08,8,17
2016-04-08,9,34
2016-04-08,10,22
2016-04-08,11,7
2016-04-08,12,14
2016-04-08,13,20
2016-04-08,14,8
2016-04-08,15,24
2016-04-08,16,28
2016-04-08,17,9
2016-04-08,18,5
2016-04-08,19,14
2016-04-08,20,15
2016-04-08,21,24
2016-04-08,22,19
2016-04-08,23,5
2016-04-09,0,19
2016-04-09,1,29
2016-04-09,2,6
2016-04-09,8,16
2016-04-09,9,25
2016-04-09,10,15
2016-04-09,11,3
2016-04-09,12,13
2016-04-09,13,23
2016-04-09,14,22
2016-04-09,15,6
2016-04-09,16,2
2016-04-09,17,1
2016-04-09,18,1
2016-04-09,19,5
2016-04-09,20,25
2016-04-09,21,11
2016-04-09,22,3
2016-04-09,23,10
2016-04-10,0,5
2016-04-10,1,8
2016-04-10,2,12
2016-04-10,8,10
2016-04-10,9,18
2016-04-10,10,29
2016-04-10,11,8
2016-04-10,12,36
2016-04-10,13,32
2016-04-10,14,18
2016-04-10,15,19
2016-04-10,16,16
2016-04-10,17,16
2016-04-10,18,1
2016-04-10,19,8
2016-04-10,20,19
2016-04-10,21,17
2016-04-10,22,12
2016-04-11,0,7
2016-04-11,1,8
2016-04-11,2,11
2016-04-11,3,1
2016-04-11,8,11
2016-04-11,9,37
2016-04-11,10,38
2016-04-11,11,16
2016-04-11,12,12
2016-04-11,13,27
2016-04-11,14,31
2016-04-11,15,20
2016-04-11,16,16
2016-04-11,17,6
2016-04-11,19,9
2016-04-11,20,8
2016-04-11,21,5
2016-04-11,22,4
2016-04-11,23,3
2016-04-12,1,1
2016-04-12,8,1
2016-04-12,9,31
2016-04-12,10,36
2016-04-12,11,24
2016-04-12,12,21
2016-04-12,13,21
2016-04-12,14,26
2016-04-12,15,28
2016-04-12,16,25
2016-04-12,17,10
2016-04-12,18,4
2016-04-12,19,11
2016-04-12,20,29
2016-04-12,21,16
2016-04-12,22,7
2016-04-12,23,8
2016-04-13,0,17
2016-04-13,1,10
2016-04-13,2,6
2016-04-13,5,1
2016-04-13,8,9
2016-04-13,9,29
2016-04-13,10,28
2016-04-13,11,11
2016-04-13,12,12
2016-04-13,13,28
2016-04-13,14,26
2016-04-13,15,11
2016-04-13,16,25
2016-04-13,17,5
2016-04-13,19,6
2016-04-13,20,23
2016-04-13,21,8
2016-04-13,22,1
2016-04-13,23,3
2016-04-14,0,7
2016-04-14,1,6
2016-04-14,2,12
2016-04-14,3,1
2016-04-14,4,6
2016-04-14,5,1
2016-04-14,9,31
2016-04-14,10,21
2016-04-14,11,12
2016-04-14,12,19
2016-04-14,13,32
2016-04-14,14,24
2016-04-14,15,33
2016-04-14,16,9
2016-04-14,17,12
2016-04-14,19,17
2016-04-14,20,24
2016-04-14,21,12
2016-04-14,22,15
2016-04-14,23,6
2016-04-15,0,3
2016-04-15,1,12
2016-04-15,2,3
2016-04-15,8,15
2016-04-15,9,38
2016-04-15,10,29
2016-04-15,11,24
2016-04-15,12,30
2016-04-15,13,19
2016-04-15,14,33
2016-04-15,15,32
2016-04-15,16,13
2016-04-15,17,9
2016-04-15,18,1
2016-04-15,19,23
2016-04-15,20,36
2016-04-15,21,18
2016-04-15,22,11
2016-04-15,23,1
2016-04-16,0,2
2016-04-16,2,1
2016-04-16,3,2
2016-04-16,8,24
2016-04-16,9,35
2016-04-16,10,14
2016-04-16,11,15
2016-04-16,12,11
2016-04-16,13,4
2016-04-16,14,2
2016-04-16,15,14
2016-04-16,16,20
2016-04-16,17,24
2016-04-16,18,2
2016-04-16,19,8
2016-04-16,20,10
2016-04-16,21,18
2016-04-16,22,5
2016-04-16,23,2
2016-04-17,0,3
2016-04-17,1,2
2016-04-17,2,3
2016-04-17,3,2
2016-04-17,8,15
2016-04-17,9,9
2016-04-17,10,13
2016-04-17,11,10
2016-04-17,12,13
2016-04-17,13,11
2016-04-17,14,27
2016-04-17,15,10
2016-04-17,16,4
2016-04-17,17,2
2016-04-17,18,7
2016-04-17,19,4
2016-04-17,20,7
2016-04-17,21,2
2016-04-17,22,4
2016-04-17,23,1
2016-04-18,0,5
2016-04-18,1,5
2016-04-18,2,17
2016-04-18,3,4
2016-04-18,8,9
2016-04-18,9,19
2016-04-18,10,31
2016-04-18,11,26
2016-04-18,12,17
2016-04-18,13,26
2016-04-18,14,43
2016-04-18,15,36
2016-04-18,16,16
2016-04-18,17,21
2016-04-18,19,9
2016-04-18,20,22
2016-04-18,21,11
2016-04-18,22,4
2016-04-18,23,1
2016-04-19,0,13
2016-04-19,1,14
2016-04-19,2,2
2016-04-19,8,8
2016-04-19,9,23
2016-04-19,10,50
2016-04-19,11,15
2016-04-19,12,8
2016-04-19,13,52
2016-04-19,14,31
2016-04-19,15,23
2016-04-19,16,17
2016-04-19,17,19
2016-04-19,19,12
2016-04-19,20,27
2016-04-19,21,22
2016-04-19,22,3
2016-04-19,23,1
2016-04-20,0,3
2016-04-20,1,3
2016-04-20,8,6
2016-04-20,9,24
2016-04-20,10,35
2016-04-20,11,11
2016-04-20,12,22
2016-04-20,13,25
2016-04-20,14,15
2016-04-20,15,9
2016-04-20,16,16
2016-04-20,17,8
2016-04-20,19,29
2016-04-20,20,28
2016-04-20,21,15
2016-04-20,22,8
2016-04-21,0,10
2016-04-21,1,11
2016-04-21,2,2
2016-04-21,8,1
2016-04-21,9,19
2016-04-21,10,29
2016-04-21,11,10
2016-04-21,12,27
2016-04-21,13,34
2016-04-21,14,24
2016-04-21,15,17
2016-04-21,16,13
2016-04-21,17,5
2016-04-21,19,27
2016-04-21,20,28
2016-04-21,21,21
2016-04-21,22,7
2016-04-22,0,4
2016-04-22,1,14
2016-04-22,2,7
2016-04-22,3,4
2016-04-22,8,3
2016-04-22,9,26
2016-04-22,10,26
2016-04-22,11,7
2016-04-22,12,16
2016-04-22,13,21
2016-04-22,14,26
2016-04-22,15,13
2016-04-22,16,5
2016-04-22,17,6
2016-04-22,19,8
2016-04-22,20,15
2016-04-22,21,18
2016-04-22,22,7
2016-04-22,23,1
2016-04-23,0,11
2016-04-23,1,1
2016-04-23,2,6
2016-04-23,4,2
2016-04-23,5,2
2016-04-23,8,11
2016-04-23,9,15
2016-04-23,10,10
2016-04-23,11,22
2016-04-23,12,19
2016-04-23,13,17
2016-04-23,14,12
2016-04-23,15,13
2016-04-23,16,9
2016-04-23,17,3
2016-04-23,19,11
2016-04-23,20,6
2016-04-23,21,1
2016-04-23,22,6
2016-04-23,23,5
2016-04-24,0,7
2016-04-24,1,6
2016-04-24,2,3
2016-04-24,4,1
2016-04-24,8,11
2016-04-24,9,9
2016-04-24,10,8
2016-04-24,11,1
2016-04-24,12,5
2016-04-24,13,20
2016-04-24,14,17
2016-04-24,15,37
2016-04-24,16,5
2016-04-24,17,9
2016-04-24,19,9
2016-04-24,20,13
2016-04-24,21,14
2016-04-24,22,15
2016-04-24,23,14
2016-04-25,0,6
2016-04-25,2,1
2016-04-25,3,1
2016-04-25,7,1
2016-04-25,8,2
2016-04-25,9,22
2016-04-25,10,17
2016-04-25,11,16
2016-04-25,12,7
2016-04-25,13,32
2016-04-25,14,12
2016-04-25,15,18
2016-04-25,16,10
2016-04-25,17,14
2016-04-25,19,12
2016-04-25,20,12
2016-04-25,21,13
2016-04-25,22,3
2016-04-26,0,3
2016-04-26,1,3
2016-04-26,2,1
2016-04-26,8,6
2016-04-26,9,17
2016-04-26,10,20
2016-04-26,11,8
2016-04-26,12,6
2016-04-26,13,20
2016-04-26,14,32
2016-04-26,15,24
2016-04-26,16,28
2016-04-26,17,20
2016-04-26,18,4
2016-04-26,19,11
2016-04-26,20,18
2016-04-26,21,15
2016-04-26,22,5
2016-04-26,23,2
2016-04-27,0,1
2016-04-27,1,5
2016-04-27,2,7
2016-04-27,8,4
2016-04-27,9,28
2016-04-27,10,28
2016-04-27,11,16
2016-04-27,12,33
2016-04-27,13,33
2016-04-27,14,44
2016-04-27,15,34
2016-04-27,16,10
2016-04-27,17,8
2016-04-27,18,2
2016-04-27,19,18
2016-04-27,20,17
2016-04-27,21,4
2016-04-27,22,4
2016-04-28,0,13
2016-04-28,1,4
2016-04-28,3,1
2016-04-28,8,4
2016-04-28,9,25
2016-04-28,10,33
2016-04-28,11,14
2016-04-28,12,20
2016-04-28,13,30
2016-04-28,14,26
2016-04-28,15,17
2016-04-28,16,15
2016-04-28,17,3
2016-04-28,18,2
2016-04-28,19,7
2016-04-28,20,30
2016-04-28,21,22
2016-04-28,22,15
2016-04-28,23,4
2016-04-29,0,30
2016-04-29,2,4
2016-04-29,3,3
2016-04-29,4,2
2016-04-29,9,19
2016-04-29,10,20
2016-04-29,11,9
2016-04-29,12,18
2016-04-29,13,15
2016-04-29,14,14
2016-04-29,15,12
2016-04-29,16,12
2016-04-29,17,7
2016-04-29,19,7
2016-04-29,20,7
2016-04-29,21,20
2016-04-29,22,11
2016-04-29,23,2
2016-04-30,0,13
2016-04-30,1,22
2016-04-30,2,1
2016-04-30,3,5
2016-04-30,8,11
2016-04-30,9,9
2016-04-30,10,39
2016-04-30,11,14
2016-04-30,12,10
2016-04-30,13,31
2016-04-30,14,14
2016-04-30,15,10
2016-04-30,16,8
2016-04-30,17,4
2016-04-30,19,7
2016-04-30,20,14
2016-05-01,4,2
2016-05-01,8,7
2016-05-01,9,16
2016-05-01,10,7
2016-05-01,11,1
2016-05-01,12,4
2016-05-01,13,4
2016-05-01,14,3
2016-05-01,15,4
2016-05-01,16,7
2016-05-01,17,1
2016-05-01,19,4
2016-05-01,20,18
2016-05-01,21,11
2016-05-01,22,3
2016-05-01,23,3
2016-05-02,0,17
2016-05-02,6,1
2016-05-02,8,7
2016-05-02,9,27
2016-05-02,10,17
2016-05-02,11,15
2016-05-02,12,21
2016-05-02,13,13
2016-05-02,14,27
2016-05-02,15,21
2016-05-02,16,18
2016-05-02,17,16
2016-05-02,18,1
2016-05-02,19,4
2016-05-02,20,7
2016-05-02,21,13
2016-05-02,22,3
2016-05-02,23,3
2016-05-03,0,10
2016-05-03,1,21
2016-05-03,2,2
2016-05-03,8,3
2016-05-03,9,26
2016-05-03,10,26
2016-05-03,11,9
2016-05-03,12,24
2016-05-03,13,16
2016-05-03,14,19
2016-05-03,15,23
2016-05-03,16,27
2016-05-03,17,14
2016-05-03,18,2
2016-05-03,19,10
2016-05-03,20,12
2016-05-03,21,1
2016-05-03,22,14
2016-05-03,23,1
2016-05-04,0,9
2016-05-04,1,9
2016-05-04,3,1
2016-05-04,8,1
2016-05-04,9,18
2016-05-04,10,11
2016-05-04,11,6
2016-05-04,12,4
2016-05-04,13,7
2016-05-04,14,7
2016-05-04,15,8
2016-05-04,16,11
2016-05-04,17,10
2016-05-04,18,5
2016-05-04,19,7
2016-05-04,20,17
2016-05-04,21,12
2016-05-04,22,9
2016-05-04,23,1
2016-05-05,0,8
2016-05-05,1,4
2016-05-05,8,3
2016-05-05,9,10
2016-05-05,10,43
2016-05-05,11,22
2016-05-05,12,17
2016-05-05,13,21
2016-05-05,14,22
2016-05-05,15,17
2016-05-05,16,22
2016-05-05,17,8
2016-05-05,18,8
2016-05-05,19,13
2016-05-05,20,9
2016-05-05,21,8
2016-05-05,22,7
2016-05-06,1,6
2016-05-06,2,1
2016-05-06,8,13
2016-05-06,9,29
2016-05-06,10,11
2016-05-06,11,15
2016-05-06,12,16
2016-05-06,13,20
2016-05-06,14,19
2016-05-06,15,40
2016-05-06,16,22
2016-05-06,17,15
2016-05-06,19,3
2016-05-06,20,9
2016-05-06,21,13
2016-05-06,22,7
2016-05-06,23,2
2016-05-07,0,1
2016-05-07,1,4
2016-05-07,2,7
2016-05-07,3,3
2016-05-07,5,2
2016-05-07,7,2
2016-05-07,8,2
2016-05-07,9,4
2016-05-07,10,9
2016-05-07,11,6
2016-05-07,12,15
2016-05-07,13,8
2016-05-07,14,9
2016-05-07,15,26
2016-05-07,16,9
2016-05-07,17,4
2016-05-07,19,4
2016-05-07,20,5
2016-05-07,21,7
2016-05-07,22,7
2016-05-07,23,2
2016-05-08,0,5
2016-05-08,1,10
2016-05-08,2,6
2016-05-08,4,1
2016-05-08,5,2
2016-05-08,9,1
2016-05-08,10,1
2016-05-08,14,12
2016-05-08,15,6
2016-05-08,16,1
2016-05-08,17,1
2016-05-08,19,10
2016-05-08,20,13
2016-05-08,21,7
2016-05-08,22,3
2016-05-08,23,3
2016-05-09,2,10
2016-05-09,3,1
2016-05-09,4,1
2016-05-09,8,11
2016-05-09,9,27
2016-05-09,10,26
2016-05-09,11,18
2016-05-09,12,11
2016-05-09,13,22
2016-05-09,14,30
2016-05-09,15,13
2016-05-09,16,11
2016-05-09,17,2
2016-05-09,19,12
2016-05-09,20,21
2016-05-09,21,19
2016-05-09,22,1
2016-05-10,1,4
2016-05-10,2,13
2016-05-10,3,1
2016-05-10,8,9
2016-05-10,9,28
2016-05-10,10,29
2016-05-10,11,20
2016-05-10,12,21
2016-05-10,13,43
2016-05-10,14,21
2016-05-10,15,15
2016-05-10,16,16
2016-05-10,17,11
2016-05-10,18,9
2016-05-10,19,6
2016-05-10,20,36
2016-05-10,21,13
2016-05-10,22,1
2016-05-10,23,1
2016-05-11,0,15
2016-05-11,1,6
2016-05-11,2,1
2016-05-11,3,4
2016-05-11,8,9
2016-05-11,9,23
2016-05-11,10,16
2016-05-11,11,10
2016-05-11,12,20
2016-05-11,13,24
2016-05-11,14,20
2016-05-11,15,27
2016-05-11,16,13
2016-05-11,17,12
2016-05-11,18,1
2016-05-11,19,10
2016-05-11,20,14
2016-05-11,21,5
2016-05-11,22,3
2016-05-11,23,8
2016-05-12,0,4
2016-05-12,1,12
2016-05-12,8,3
2016-05-12,9,25
2016-05-12,10,66
2016-05-12,11,19
2016-05-12,12,15
2016-05-12,13,8
2016-05-12,14,8
2016-05-12,15,9
2016-05-12,16,28
2016-05-12,17,11
2016-05-12,18,2
2016-05-12,19,4
2016-05-12,20,10
2016-05-12,21,10
2016-05-12,22,6
2016-05-13,0,2
2016-05-13,1,1
2016-05-13,2,3
2016-05-13,8,6
2016-05-13,9,44
2016-05-13,10,36
2016-05-13,11,18
2016-05-13,12,17
2016-05-13,13,15
2016-05-13,14,30
2016-05-13,15,13
2016-05-13,16,16
2016-05-13,17,3
2016-05-13,18,1
2016-05-13,19,6
2016-05-13,20,9
2016-05-13,21,4
2016-05-13,22,12
2016-05-13,23,8
2016-05-14,0,5
2016-05-14,1,8
2016-05-14,2,1
2016-05-14,8,6
2016-05-14,9,20
2016-05-14,10,19
2016-05-14,11,18
2016-05-14,12,15
2016-05-14,13,15
2016-05-14,14,15
2016-05-14,15,9
2016-05-14,16,12
2016-05-14,17,16
2016-05-14,18,2
2016-05-14,20,14
2016-05-14,21,1
2016-05-14,22,2
2016-05-14,23,4
2016-05-15,0,13
2016-05-15,1,5
2016-05-15,2,8
2016-05-15,3,2
2016-05-15,4,1
2016-05-15,5,4
2016-05-15,6,1
2016-05-15,8,6
2016-05-15,9,17
2016-05-15,10,18
2016-05-15,11,10
2016-05-15,12,6
2016-05-15,13,28
2016-05-15,14,16
2016-05-15,15,14
2016-05-15,16,6
2016-05-15,18,3
2016-05-15,19,18
2016-05-15,20,23
2016-05-15,21,13
2016-05-15,22,4
2016-05-15,23,13
2016-05-16,0,12
2016-05-16,2,5
2016-05-16,3,4
2016-05-16,5,1
2016-05-16,8,6
2016-05-16,9,10
2016-05-16,10,7
2016-05-16,11,22
2016-05-16,12,15
2016-05-16,13,12
2016-05-16,14,14
2016-05-16,15,20
2016-05-16,16,20
2016-05-16,17,3
2016-05-16,18,6
2016-05-16,19,22
2016-05-16,20,25
2016-05-16,21,19
2016-05-16,22,4
2016-05-16,23,5
2016-05-17,0,2
2016-05-17,1,1
2016-05-17,3,3
2016-05-17,8,5
2016-05-17,9,15
2016-05-17,10,29
2016-05-17,11,22
2016-05-17,12,17
2016-05-17,13,17
2016-05-17,14,16
2016-05-17,15,28
2016-05-17,16,16
2016-05-17,17,8
2016-05-17,18,4
2016-05-17,19,30
2016-05-17,20,34
2016-05-17,21,17
2016-05-17,22,9
2016-05-18,0,8
2016-05-18,1,3
2016-05-18,4,3
2016-05-18,5,3
2016-05-18,8,5
2016-05-18,9,35
2016-05-18,10,46
2016-05-18,11,12
2016-05-18,12,17
2016-05-18,13,16
2016-05-18,14,17
2016-05-18,15,14
2016-05-18,16,17
2016-05-18,17,6
2016-05-18,18,1
2016-05-18,19,8
2016-05-18,20,25
2016-05-18,21,12
2016-05-18,22,5
2016-05-18,23,6
2016-05-19,0,7
2016-05-19,1,3
2016-05-19,2,5
2016-05-19,8,8
2016-05-19,9,20
2016-05-19,10,43
2016-05-19,11,16
2016-05-19,12,26
2016-05-19,13,34
2016-05-19,14,17
2016-05-19,15,12
2016-05-19,16,8
2016-05-19,17,2
2016-05-19,18,2
2016-05-19,19,5
2016-05-19,20,25
2016-05-19,21,6
2016-05-19,22,3
2016-05-19,23,1
2016-05-20,1,4
2016-05-20,8,7
2016-05-20,9,39
2016-05-20,10,36
2016-05-20,11,21
2016-05-20,12,8
2016-05-20,13,31
2016-05-20,14,31
2016-05-20,15,29
2016-05-20,16,26
2016-05-20,17,2
2016-05-20,19,12
2016-05-20,20,9
2016-05-20,21,5
2016-05-20,22,3
2016-05-20,23,3
2016-05-21,0,1
2016-05-21,2,1
2016-05-21,8,10
2016-05-21,9,11
2016-05-21,10,19
2016-05-21,11,6
2016-05-21,12,2
2016-05-21,13,14
2016-05-21,14,28
2016-05-21,15,15
2016-05-21,16,6
2016-05-21,17,2
2016-05-21,19,2
2016-05-21,20,9
2016-05-21,21,10
2016-05-21,22,8
2016-05-21,23,1
2016-05-22,0,10
2016-05-22,1,4
2016-05-22,2,3
2016-05-22,3,1
2016-05-22,8,25
2016-05-22,9,4
2016-05-22,10,26
2016-05-22,11,4
2016-05-22,12,21
2016-05-22,13,21
2016-05-22,14,13
2016-05-22,15,7
2016-05-22,16,3
2016-05-22,17,5
2016-05-22,18,1
2016-05-22,19,4
2016-05-22,20,7
2016-05-22,21,2
2016-05-22,22,2
2016-05-22,23,4
2016-05-23,0,22
2016-05-23,1,16
2016-05-23,2,11
2016-05-23,3,2
2016-05-23,4,3
2016-05-23,8,5
2016-05-23,9,30
2016-05-23,10,32
2016-05-23,11,21
2016-05-23,12,34
2016-05-23,13,31
2016-05-23,14,32
2016-05-23,15,33
2016-05-23,16,23
2016-05-23,17,4
2016-05-23,19,12
2016-05-23,20,17
2016-05-23,21,15
2016-05-23,22,2
2016-05-23,23,1
2016-05-24,0,10
2016-05-24,1,8
2016-05-24,2,1
2016-05-24,8,8
2016-05-24,9,38
2016-05-24,10,34
2016-05-24,11,23
2016-05-24,12,14
2016-05-24,13,37
2016-05-24,14,37
2016-05-24,15,18
2016-05-24,16,7
2016-05-24,19,30
2016-05-24,20,31
2016-05-24,21,30
2016-05-24,22,7
2016-05-25,0,4
2016-05-25,1,1
2016-05-25,2,9
2016-05-25,8,9
2016-05-25,9,15
2016-05-25,10,34
2016-05-25,11,23
2016-05-25,12,31
2016-05-25,13,34
2016-05-25,14,25
2016-05-25,15,41
2016-05-25,16,17
2016-05-25,17,11
2016-05-25,18,1
2016-05-25,19,31
2016-05-25,20,28
2016-05-25,21,7
2016-05-25,22,10
2016-05-25,23,1
2016-05-26,2,7
2016-05-26,5,1
2016-05-26,8,8
2016-05-26,9,44
2016-05-26,10,38
2016-05-26,11,9
2016-05-26,12,12
2016-05-26,13,9
2016-05-26,14,9
2016-05-26,15,19
2016-05-26,16,19
2016-05-26,17,14
2016-05-26,19,11
2016-05-26,20,40
2016-05-26,21,11
2016-05-26,22,3
2016-05-26,23,1
2016-05-27,0,12
2016-05-27,1,11
2016-05-27,2,11
2016-05-27,3,6
2016-05-27,8,6
2016-05-27,9,32
2016-05-27,10,37
2016-05-27,11,16
2016-05-27,12,35
2016-05-27,13,6
2016-05-27,14,8
2016-05-27,15,25
2016-05-27,16,11
2016-05-27,17,13
2016-05-27,19,7
2016-05-27,20,6
2016-05-27,21,10
2016-05-28,0,9
2016-05-28,8,6
2016-05-28,9,7
2016-05-28,10,25
2016-05-28,11,10
2016-05-28,12,17
2016-05-28,13,17
2016-05-28,14,14
2016-05-28,15,17
2016-05-28,16,8
2016-05-28,17,6
2016-05-28,19,2
2016-05-28,20,15
2016-05-28,21,19
2016-05-28,22,19
2016-05-28,23,6
2016-05-29,0,3
2016-05-29,1,12
2016-05-29,2,6
2016-05-29,3,1
2016-05-29,5,3
2016-05-29,8,5
2016-05-29,9,16
2016-05-29,10,23
2016-05-29,11,8
2016-05-29,12,13
2016-05-29,13,27
2016-05-29,14,18
2016-05-29,15,13
2016-05-29,16,12
2016-05-29,17,4
2016-05-29,19,4
2016-05-29,20,9
2016-05-29,21,2
2016-05-29,22,1
2016-05-29,23,1
2016-05-30,0,2
2016-05-30,2,2
2016-05-30,4,1
2016-05-30,5,3
2016-05-30,8,7
2016-05-30,9,46
2016-05-30,10,38
2016-05-30,11,23
2016-05-30,12,18
2016-05-30,13,15
2016-05-30,14,20
2016-05-30,15,26
2016-05-30,16,22
2016-05-30,17,21
2016-05-30,18,2
2016-05-30,19,7
2016-05-30,20,15
2016-05-30,21,10
2016-05-30,22,2
2016-05-30,23,8
2016-05-31,0,18
2016-05-31,1,15
2016-05-31,2,4
2016-05-31,3,4
2016-05-31,5,1
2016-05-31,8,1
2016-05-31,9,13
2016-05-31,10,39
2016-05-31,11,40
2016-05-31,12,18
2016-05-31,13,27
2016-05-31,14,40
2016-05-31,15,3
2016-05-31,16,28
2016-05-31,17,7
2016-05-31,18,3
2016-05-31,19,15
2016-05-31,20,15
2016-05-31,21,16
2016-05-31,22,1
2016-05-31,23,2
2016-06-01,0,3
2016-06-01,1,12
2016-06-01,2,6
2016-06-01,8,7
2016-06-01,9,38
2016-06-01,10,28
2016-06-01,11,13
2016-06-01,12,31
2016-06-01,13,26
2016-06-01,14,40
2016-06-01,15,24
2016-06-01,16,25
2016-06-01,17,9
2016-06-01,19,17
2016-06-01,20,38
2016-06-01,21,10
2016-06-01,22,2
2016-06-01,23,1
2016-06-02,0,1
2016-06-02,1,7
2016-06-02,2,1
2016-06-02,8,9
2016-06-02,9,41
2016-06-02,10,37
2016-06-02,11,12
2016-06-02,12,17
2016-06-02,13,29
2016-06-02,14,56
2016-06-02,15,12
2016-06-02,16,43
2016-06-02,17,16
2016-06-02,18,9
2016-06-02,19,30
2016-06-02,20,26
2016-06-02,21,13
2016-06-02,22,3
2016-06-02,23,4
2016-06-03,0,5
2016-06-03,1,1
2016-06-03,2,1
2016-06-03,8,6
2016-06-03,9,30
2016-06-03,10,38
2016-06-03,11,22
2016-06-03,12,26
2016-06-03,13,20
2016-06-03,14,15
2016-06-03,15,30
2016-06-03,16,29
2016-06-03,17,5
2016-06-03,18,2
2016-06-03,19,6
2016-06-03,20,13
2016-06-03,21,2
2016-06-03,22,8
2016-06-03,23,6
2016-06-04,0,16
2016-06-04,1,14
2016-06-04,3,7
2016-06-04,8,12
2016-06-04,9,38
2016-06-04,10,26
2016-06-04,11,2
2016-06-04,12,10
2016-06-04,13,9
2016-06-04,14,10
2016-06-04,15,17
2016-06-04,16,5
2016-06-04,17,6
2016-06-04,18,9
2016-06-04,19,3
2016-06-04,20,7
2016-06-04,21,1
2016-06-05,0,4
2016-06-05,1,16
2016-06-05,3,11
2016-06-05,8,3
2016-06-05,9,7
2016-06-05,10,11
2016-06-05,11,5
2016-06-05,12,23
2016-06-05,13,9
2016-06-05,14,13
2016-06-05,15,8
2016-06-05,16,10
2016-06-05,17,6
2016-06-05,19,6
2016-06-05,20,7
2016-06-05,21,7
2016-06-05,22,3
2016-06-06,0,8
2016-06-06,1,17
2016-06-06,2,13
2016-06-06,8,4
2016-06-06,9,39
2016-06-06,10,60
2016-06-06,11,29
2016-06-06,12,17
2016-06-06,13,34
2016-06-06,14,31
2016-06-06,15,36
2016-06-06,16,24
2016-06-06,17,14
2016-06-06,18,4
2016-06-06,19,18
2016-06-06,20,23
2016-06-06,21,7
2016-06-06,22,7
2016-06-06,23,8
2016-06-07,8,17
2016-06-07,9,21
2016-06-07,10,20
2016-06-07,11,10
2016-06-07,12,13
2016-06-07,13,27
2016-06-07,14,31
2016-06-07,15,16
2016-06-07,16,10
2016-06-07,17,3
2016-06-07,18,7
2016-06-07,19,7
2016-06-07,20,13
2016-06-07,21,8
2016-06-07,22,6
2016-06-07,23,6
2016-06-08,0,5
2016-06-08,1,10
2016-06-08,2,12
2016-06-08,3,8
2016-06-08,4,2
2016-06-08,8,7
2016-06-08,9,26
2016-06-08,10,53
2016-06-08,11,12
2016-06-08,12,35
2016-06-08,13,26
2016-06-08,14,31
2016-06-08,15,25
2016-06-08,16,15
2016-06-08,17,10
2016-06-08,18,2
2016-06-08,19,6
2016-06-08,20,17
2016-06-08,21,13
2016-06-08,22,4
2016-06-08,23,2
2016-06-09,0,3
2016-06-09,1,13
2016-06-09,2,4
2016-06-09,3,2
2016-06-09,8,6
2016-06-09,9,63
2016-06-09,10,49
2016-06-09,11,18
2016-06-09,12,24
2016-06-09,13,30
2016-06-09,14,26
2016-06-09,15,30
2016-06-09,16,20
2016-06-09,17,7
2016-06-09,18,9
2016-06-09,19,34
2016-06-09,20,35
2016-06-09,21,8
2016-06-09,22,17
2016-06-09,23,4
2016-06-10,8,10
2016-06-10,9,47
2016-06-10,10,60
2016-06-10,11,21
2016-06-10,12,26
2016-06-10,13,50
2016-06-10,14,16
2016-06-10,15,25
2016-06-10,16,5
2016-06-10,17,1
2016-06-10,18,2
2016-06-10,19,37
2016-06-10,20,8
2016-06-10,21,9
2016-06-10,22,2
2016-06-11,0,15
2016-06-11,3,1
2016-06-11,8,24
2016-06-11,9,21
2016-06-11,10,7
2016-06-11,11,3
2016-06-11,13,3
2016-06-11,14,5
2016-06-11,15,6
2016-06-11,16,13
2016-06-11,17,4
2016-06-11,18,12
2016-06-11,19,1
2016-06-11,20,10
2016-06-11,21,14
2016-06-11,22,3
2016-06-12,0,11
2016-06-12,1,9
2016-06-12,3,5
2016-06-12,4,1
2016-06-12,8,12
2016-06-12,9,9
2016-06-12,10,11
2016-06-12,11,6
2016-06-12,12,11
2016-06-12,13,16
2016-06-12,14,14
2016-06-12,15,18
2016-06-12,16,11
2016-06-12,17,2
2016-06-12,18,3
2016-06-12,19,8
2016-06-12,20,23
2016-06-12,21,11
2016-06-12,22,17
2016-06-12,23,1
2016-06-13,0,17
2016-06-13,1,4
2016-06-13,2,2
2016-06-13,8,4
2016-06-13,9,37
2016-06-13,10,43
2016-06-13,11,18
2016-06-13,12,32
2016-06-13,13,20
2016-06-13,14,36
2016-06-13,15,16
2016-06-13,16,9
2016-06-13,17,14
2016-06-13,18,1
2016-06-13,19,9
2016-06-13,20,9
2016-06-13,21,9
2016-06-13,22,4
2016-06-13,23,1
2016-06-14,0,2
2016-06-14,1,2
2016-06-14,2,6
2016-06-14,5,1
2016-06-14,8,17
2016-06-14,9,40
2016-06-14,10,39
2016-06-14,11,27
2016-06-14,12,11
2016-06-14,13,24
2016-06-14,14,44
2016-06-14,15,28
2016-06-14,16,26
2016-06-14,17,6
2016-06-14,18,7
2016-06-14,19,12
2016-06-14,20,21
2016-06-14,21,10
2016-06-14,22,2
2016-06-15,1,1
2016-06-15,8,7
2016-06-15,9,20
2016-06-15,10,11
2016-06-15,11,17
2016-06-15,12,26
2016-06-15,13,46
2016-06-15,14,22
2016-06-15,15,27
2016-06-15,16,19
2016-06-15,17,8
2016-06-15,18,4
2016-06-15,19,15
2016-06-15,20,35
2016-06-15,21,17
2016-06-15,22,4
2016-06-15,23,2
2016-06-16,0,4
2016-06-16,1,3
2016-06-16,2,2
2016-06-16,3,1
2016-06-16,8,7
2016-06-16,9,28
2016-06-16,10,23
2016-06-16,11,9
2016-06-16,12,13
2016-06-16,13,14
2016-06-16,14,14
2016-06-16,15,9
2016-06-16,16,19
2016-06-16,17,15
2016-06-16,18,3
2016-06-16,19,7
2016-06-16,20,17
2016-06-16,21,9
2016-06-16,22,3
2016-06-16,23,4
2016-06-17,0,2
2016-06-17,2,5
2016-06-17,3,1
2016-06-17,4,6
2016-06-17,5,1
2016-06-17,8,1
2016-06-17,9,9
2016-06-17,10,14
2016-06-17,11,9
2016-06-17,12,16
2016-06-17,13,24
2016-06-17,14,21
2016-06-17,15,17
2016-06-17,16,11
2016-06-17,17,12
2016-06-17,19,1
2016-06-17,20,9
2016-06-17,21,3
2016-06-17,22,6
2016-06-17,23,3
2016-06-18,0,6
2016-06-18,1,5
2016-06-18,2,12
2016-06-18,4,1
2016-06-18,5,1
2016-06-18,8,6
2016-06-18,9,11
2016-06-18,10,24
2016-06-18,12,5
2016-06-18,13,8
2016-06-18,14,8
2016-06-18,15,5
2016-06-18,16,7
2016-06-18,17,9
2016-06-18,19,4
2016-06-18,20,16
2016-06-18,21,13
2016-06-18,22,3
2016-06-18,23,4
2016-06-19,0,6
2016-06-19,1,4
2016-06-19,8,7
2016-06-19,9,3
2016-06-19,10,3
2016-06-19,11,7
2016-06-19,12,8
2016-06-19,13,16
2016-06-19,14,21
2016-06-19,15,9
2016-06-19,16,13
2016-06-19,17,8
2016-06-19,19,6
2016-06-19,20,18
2016-06-19,21,9
2016-06-19,22,5
2016-06-20,0,11
2016-06-20,1,7
2016-06-20,4,1
2016-06-20,5,2
2016-06-20,8,11
2016-06-20,9,33
2016-06-20,10,32
2016-06-20,11,10
2016-06-20,12,11
2016-06-20,13,19
2016-06-20,14,20
2016-06-20,15,26
2016-06-20,16,21
2016-06-20,17,11
2016-06-20,18,3
2016-06-20,19,9
2016-06-20,20,17
2016-06-20,21,13
2016-06-20,22,1
2016-06-21,0,2
2016-06-21,1,2
2016-06-21,2,1
2016-06-21,5,1
2016-06-21,8,11
2016-06-21,9,30
2016-06-21,10,25
2016-06-21,11,9
2016-06-21,12,16
2016-06-21,13,26
2016-06-21,14,22
2016-06-21,15,35
2016-06-21,16,17
2016-06-21,17,15
2016-06-21,19,9
2016-06-21,20,6
2016-06-21,21,12
2016-06-21,22,6
2016-06-21,23,3
2016-06-22,0,1
2016-06-22,1,4
2016-06-22,2,9
2016-06-22,8,13
2016-06-22,9,40
2016-06-22,10,52
2016-06-22,11,19
2016-06-22,12,34
2016-06-22,13,43
2016-06-22,14,26
2016-06-22,15,35
2016-06-22,16,32
2016-06-22,17,13
2016-06-22,18,3
2016-06-22,19,8
2016-06-22,20,14
2016-06-22,21,9
2016-06-22,22,1
2016-06-23,0,1
2016-06-23,1,4
2016-06-23,2,1
2016-06-23,3,1
2016-06-23,4,1
2016-06-23,8,13
2016-06-23,9,35
2016-06-23,10,28
2016-06-23,11,18
2016-06-23,12,16
2016-06-23,13,26
2016-06-23,14,14
2016-06-23,15,12
2016-06-23,16,22
2016-06-23,17,9
2016-06-23,18,2
2016-06-23,19,12
2016-06-23,20,42
2016-06-23,21,15
2016-06-24,0,20
2016-06-24,1,3
2016-06-24,2,5
2016-06-24,3,5
2016-06-24,8,19
2016-06-24,9,24
2016-06-24,10,44
2016-06-24,11,23
2016-06-24,12,14
2016-06-24,13,18
2016-06-24,14,19
2016-06-24,15,19
2016-06-24,16,24
2016-06-24,17,12
2016-06-24,18,1
2016-06-24,20,8
2016-06-24,21,7
2016-06-24,22,6
2016-06-24,23,1
2016-06-25,0,11
2016-06-25,1,5
2016-06-25,2,3
2016-06-25,3,2
2016-06-25,8,7
2016-06-25,9,24
2016-06-25,10,2
2016-06-25,11,5
2016-06-25,12,8
2016-06-25,13,4
2016-06-25,14,15
2016-06-25,15,1
2016-06-25,16,1
2016-06-25,17,1
2016-06-25,18,2
2016-06-25,19,5
2016-06-25,20,6
2016-06-25,21,2
2016-06-25,22,1
2016-06-25,23,1
2016-06-26,0,2
2016-06-26,1,9
2016-06-26,2,3
2016-06-26,5,1
2016-06-26,8,7
2016-06-26,9,19
2016-06-26,10,7
2016-06-26,11,18
2016-06-26,12,3
2016-06-26,13,11
2016-06-26,14,11
2016-06-26,15,9
2016-06-26,16,7
2016-06-26,19,22
2016-06-26,20,37
2016-06-26,21,12
2016-06-26,23,3
2016-06-27,0,5
2016-06-27,1,6
2016-06-27,2,3
2016-06-27,7,1
2016-06-27,8,13
2016-06-27,9,36
2016-06-27,10,37
2016-06-27,11,25
2016-06-27,12,23
2016-06-27,13,9
2016-06-27,14,21
2016-06-27,15,7
2016-06-27,16,6
2016-06-27,17,10
2016-06-27,18,5
2016-06-27,19,5
2016-06-27,20,11
2016-06-27,21,24
2016-06-27,22,4
2016-06-27,23,4
2016-06-28,0,26
2016-06-28,1,8
2016-06-28,5,2
2016-06-28,8,12
2016-06-28,9,15
2016-06-28,10,14
2016-06-28,11,19
2016-06-28,12,42
2016-06-28,13,21
2016-06-28,14,25
2016-06-28,15,27
2016-06-28,16,8
2016-06-28,17,10
2016-06-28,19,6
2016-06-28,20,17
2016-06-28,21,10
2016-06-28,23,3
2016-06-29,0,13
2016-06-29,1,13
2016-06-29,2,7
2016-06-29,8,8
2016-06-29,9,33
2016-06-29,10,37
2016-06-29,11,7
2016-06-29,12,17
2016-06-29,13,17
2016-06-29,14,14
2016-06-29,15,20
2016-06-29,16,21
2016-06-29,17,8
2016-06-29,19,10
2016-06-29,20,7
2016-06-29,21,7
2016-06-29,22,4
2016-06-30,0,6
2016-06-30,1,7
2016-06-30,2,5
2016-06-30,3,1
2016-06-30,8,4
2016-06-30,9,8
2016-06-30,10,23
2016-06-30,11,15
2016-06-30,12,30
2016-06-30,13,29
2016-06-30,14,18
2016-06-30,15,30
2016-06-30,16,22
2016-06-30,17,14
2016-06-30,18,2
2016-06-30,19,12
2016-06-30,20,8
2016-06-30,21,17
2016-06-30,22,3
2016-06-30,23,1
2016-07-01,1,2
2016-07-01,4,1
2016-07-01,8,19
2016-07-01,9,28
2016-07-01,10,33
2016-07-01,11,14
2016-07-01,12,14
2016-07-01,13,33
2016-07-01,14,22
2016-07-01,15,16
2016-07-01,16,10
2016-07-01,17,14
2016-07-01,18,2
2016-07-01,19,1
2016-07-01,20,16
2016-07-01,21,9
2016-07-01,22,7
2016-07-02,0,4
2016-07-02,1,4
2016-07-02,2,3
2016-07-02,7,1
2016-07-02,8,10
2016-07-02,9,56
2016-07-02,10,39
2016-07-02,11,10
2016-07-02,12,8
2016-07-02,13,25
2016-07-02,14,25
2016-07-02,15,15
2016-07-02,16,11
2016-07-02,17,7
2016-07-02,19,8
2016-07-02,20,19
2016-07-02,21,13
2016-07-02,22,2
2016-07-02,23,4
2016-07-03,0,6
2016-07-03,1,7
2016-07-03,2,6
2016-07-03,8,12
2016-07-03,9,22
2016-07-03,10,27
2016-07-03,11,7
2016-07-03,12,24
2016-07-03,13,20
2016-07-03,14,8
2016-07-03,15,13
2016-07-03,16,3
2016-07-03,17,8
2016-07-03,18,3
2016-07-03,19,23
2016-07-03,20,36
2016-07-03,21,10
2016-07-03,22,9
2016-07-03,23,5
2016-07-04,0,7
2016-07-04,1,6
2016-07-04,3,1
2016-07-04,8,10
2016-07-04,9,24
2016-07-04,10,18
2016-07-04,11,16
2016-07-04,12,18
2016-07-04,13,30
2016-07-04,14,37
2016-07-04,15,32
2016-07-04,16,18
2016-07-04,17,4
2016-07-04,19,22
2016-07-04,20,27
2016-07-04,21,20
2016-07-04,22,2
2016-07-04,23,5
2016-07-05,0,1
2016-07-05,2,2
2016-07-05,3,1
2016-07-05,5,1
2016-07-05,8,4
2016-07-05,9,7
2016-07-05,10,4
2016-07-05,11,4
2016-07-05,12,8
2016-07-05,13,2
2016-07-05,14,3
2016-07-05,15,13
2016-07-05,16,6
2016-07-05,17,2
2016-07-05,20,2
2016-07-05,21,1
2016-07-05,22,2
2016-07-06,5,2
2016-07-06,7,1
2016-07-06,8,19
2016-07-06,9,9
2016-07-06,10,8
2016-07-06,11,12
2016-07-06,12,5
2016-07-06,13,3
2016-07-06,14,6
2016-07-06,15,4
2016-07-06,16,9
2016-07-06,17,4
2016-07-06,18,1
2016-07-06,19,1
2016-07-06,20,8
2016-07-06,21,20
2016-07-06,22,6
2016-07-06,23,3
2016-07-07,0,16
2016-07-07,3,1
2016-07-07,4,1
2016-07-07,7,1
2016-07-07,8,26
2016-07-07,9,31
2016-07-07,10,55
2016-07-07,11,18
2016-07-07,12,28
2016-07-07,13,33
2016-07-07,14,13
2016-07-07,15,24
2016-07-07,16,16
2016-07-07,17,19
2016-07-07,18,1
2016-07-07,19,5
2016-07-07,20,19
2016-07-07,21,1
2016-07-07,22,1
2016-07-08,1,7
2016-07-08,2,3
2016-07-08,3,1
2016-07-08,5,1
2016-07-08,8,15
2016-07-08,9,39
2016-07-08,10,46
2016-07-08,11,10
2016-07-08,12,23
2016-07-08,13,32
2016-07-08,14,8
2016-07-08,15,24
2016-07-08,16,13
2016-07-08,17,13
2016-07-08,20,15
2016-07-09,0,1
2016-07-09,8,8
2016-07-09,9,41
2016-07-09,10,13
2016-07-09,11,4
2016-07-09,12,17
2016-07-09,13,9
2016-07-09,14,2
2016-07-09,15,7
2016-07-09,16,21
2016-07-09,17,1
2016-07-09,19,12
2016-07-09,20,22
2016-07-09,21,19
2016-07-09,22,6
2016-07-09,23,10
2016-07-10,0,13
2016-07-10,1,11
2016-07-10,2,6
2016-07-10,3,2
2016-07-10,5,1
2016-07-10,8,9
2016-07-10,9,12
2016-07-10,10,29
2016-07-10,11,8
2016-07-10,12,18
2016-07-10,13,6
2016-07-10,14,3
2016-07-10,15,4
2016-07-10,16,1
2016-07-10,17,1
2016-07-10,19,8
2016-07-10,20,31
2016-07-10,21,13
2016-07-10,22,6
2016-07-10,23,5
2016-07-11,0,15
2016-07-11,1,9
2016-07-11,2,4
2016-07-11,3,2
2016-07-11,5,1
2016-07-11,8,17
2016-07-11,9,38
2016-07-11,10,25
2016-07-11,11,4
2016-07-11,12,6
2016-07-11,13,21
2016-07-11,14,8
2016-07-11,15,2
2016-07-11,16,6
2016-07-11,17,10
2016-07-11,19,19
2016-07-11,20,26
2016-07-11,21,8
2016-07-11,22,11
2016-07-11,23,7
2016-07-12,0,5
2016-07-12,1,1
2016-07-12,4,1
2016-07-12,5,1
2016-07-12,8,16
2016-07-12,9,22
2016-07-12,10,16
2016-07-12,11,11
2016-07-12,12,14
2016-07-12,13,41
2016-07-12,14,34
2016-07-12,15,16
2016-07-12,16,10
2016-07-12,17,11
2016-07-12,19,19
2016-07-12,20,23
2016-07-12,21,7
2016-07-12,22,4
2016-07-13,8,20
2016-07-13,9,23
2016-07-13,10,19
2016-07-13,11,8
2016-07-13,12,18
2016-07-13,13,30
2016-07-13,14,36
2016-07-13,15,19
2016-07-13,16,14
2016-07-13,17,5
2016-07-13,18,1
2016-07-13,19,3
2016-07-13,20,1
2016-07-13,21,6
2016-07-13,22,1
2016-07-14,0,1
2016-07-14,2,3
2016-07-14,8,4
2016-07-14,9,17
2016-07-14,10,7
2016-07-14,11,2
2016-07-14,12,5
2016-07-14,13,7
2016-07-14,14,10
2016-07-14,15,15
2016-07-14,16,5
2016-07-14,17,5
2016-07-14,19,13
2016-07-14,20,17
2016-07-14,21,14
2016-07-14,23,1
2016-07-15,0,6
2016-07-15,1,2
2016-07-15,8,9
2016-07-15,9,22
2016-07-15,10,23
2016-07-15,11,11
2016-07-15,12,20
2016-07-15,13,19
2016-07-15,14,11
2016-07-15,15,18
2016-07-15,16,32
2016-07-15,17,26
2016-07-15,18,1
2016-07-15,19,1
2016-07-15,20,7
2016-07-15,21,1
2016-07-15,22,2
2016-07-16,0,1
2016-07-16,2,1
2016-07-16,8,7
2016-07-16,9,9
2016-07-16,10,13
2016-07-16,11,6
2016-07-16,12,8
2016-07-16,13,13
2016-07-16,14,16
2016-07-16,15,9
2016-07-16,16,25
2016-07-16,17,2
2016-07-16,18,2
2016-07-16,19,3
2016-07-16,20,14
2016-07-16,21,2
2016-07-16,22,1
2016-07-17,1,2
2016-07-17,8,5
2016-07-17,9,17
2016-07-17,10,7
2016-07-17,11,9
2016-07-17,12,16
2016-07-17,13,13
2016-07-17,14,9
2016-07-17,15,6
2016-07-17,16,11
2016-07-17,17,6
2016-07-17,18,1
2016-07-17,19,15
2016-07-17,20,13
2016-07-17,21,18
2016-07-17,22,3
2016-07-17,23,1
2016-07-18,0,13
2016-07-18,1,1
2016-07-18,2,5
2016-07-18,8,23
2016-07-18,9,31
2016-07-18,10,30
2016-07-18,11,19
2016-07-18,12,23
2016-07-18,13,36
2016-07-18,14,15
2016-07-18,15,20
2016-07-18,16,12
2016-07-18,17,17
2016-07-18,19,5
2016-07-18,20,12
2016-07-18,21,3
2016-07-18,22,1
2016-07-18,23,1
2016-07-19,2,1
2016-07-19,8,2
2016-07-19,9,34
2016-07-19,10,21
2016-07-19,11,10
2016-07-19,12,25
2016-07-19,13,24
2016-07-19,14,19
2016-07-19,15,10
2016-07-19,16,18
2016-07-19,17,2
2016-07-19,18,1
2016-07-19,19,21
2016-07-19,20,25
2016-07-19,21,11
2016-07-19,22,2
2016-07-19,23,4
2016-07-20,3,1
2016-07-20,8,27
2016-07-20,9,28
2016-07-20,10,11
2016-07-20,11,15
2016-07-20,12,15
2016-07-20,13,38
2016-07-20,14,19
2016-07-20,15,9
2016-07-20,16,11
2016-07-20,17,7
2016-07-20,19,3
2016-07-20,20,4
2016-07-20,21,11
2016-07-20,22,3
2016-07-21,0,1
2016-07-21,1,4
2016-07-21,2,1
2016-07-21,8,13
2016-07-21,9,19
2016-07-21,10,15
2016-07-21,11,4
2016-07-21,12,24
2016-07-21,13,16
2016-07-21,14,11
2016-07-21,15,10
2016-07-21,16,2
2016-07-21,17,21
2016-07-21,18,2
2016-07-21,19,4
2016-07-21,20,3
2016-07-21,21,2
2016-07-21,22,5
2016-07-21,23,4
2016-07-22,0,1
2016-07-22,8,14
2016-07-22,9,32
2016-07-22,10,16
2016-07-22,11,6
2016-07-22,12,10
2016-07-22,13,11
2016-07-22,14,13
2016-07-22,15,21
2016-07-22,16,2
2016-07-22,17,5
2016-07-22,19,3
2016-07-22,20,8
2016-07-22,21,7
2016-07-22,23,1
2016-07-23,0,5
2016-07-23,1,5
2016-07-23,8,6
2016-07-23,9,14
2016-07-23,10,15
2016-07-23,11,5
2016-07-23,12,11
2016-07-23,13,7
2016-07-23,14,15
2016-07-23,15,4
2016-07-23,16,6
2016-07-23,17,1
2016-07-23,19,2
2016-07-23,20,2
2016-07-23,21,5
2016-07-23,22,4
2016-07-24,0,1
2016-07-24,4,1
2016-07-24,8,9
2016-07-24,9,10
2016-07-24,10,11
2016-07-24,11,5
2016-07-24,12,5
2016-07-24,13,9
2016-07-24,14,7
2016-07-24,15,13
2016-07-24,16,7
2016-07-24,17,11
2016-07-24,18,2
2016-07-24,19,2
2016-07-24,20,11
2016-07-24,21,4
2016-07-24,22,2
2016-07-24,23,1
2016-07-25,1,2
2016-07-25,8,6
2016-07-25,9,39
2016-07-25,10,26
2016-07-25,11,28
2016-07-25,12,23
2016-07-25,13,17
2016-07-25,14,17
2016-07-25,15,6
2016-07-25,16,10
2016-07-25,17,15
2016-07-25,19,15
2016-07-25,20,17
2016-07-25,21,6
2016-07-25,22,5
2016-07-25,23,13
2016-07-26,0,24
2016-07-26,1,11
2016-07-26,2,5
2016-07-26,3,9
2016-07-26,5,3
2016-07-26,8,2
2016-07-26,9,23
2016-07-26,10,20
2016-07-26,11,11
2016-07-26,12,19
2016-07-26,13,32
2016-07-26,14,20
2016-07-26,15,11
2016-07-26,16,1
2016-07-26,17,3
2016-07-26,19,31
2016-07-26,20,34
2016-07-26,21,45
2016-07-26,22,6
2016-07-26,23,8
2016-07-27,0,11
2016-07-27,1,5
2016-07-27,2,1
2016-07-27,7,3
2016-07-27,8,9
2016-07-27,9,38
2016-07-27,10,27
2016-07-27,11,6
2016-07-27,12,29
2016-07-27,13,19
2016-07-27,14,8
2016-07-27,15,17
2016-07-27,16,2
2016-07-27,17,3
2016-07-27,18,2
2016-07-27,19,1
2016-07-27,20,12
2016-07-27,21,6
2016-07-27,22,2
2016-07-27,23,3
2016-07-28,0,1
2016-07-28,1,1
2016-07-28,2,4
2016-07-28,3,1
2016-07-28,8,12
2016-07-28,9,50
2016-07-28,10,34
2016-07-28,11,11
2016-07-28,12,12
2016-07-28,13,8
2016-07-28,14,41
2016-07-28,15,18
2016-07-28,16,5
2016-07-28,17,3
2016-07-28,19,8
2016-07-28,20,7
2016-07-28,21,11
2016-07-28,22,3
2016-07-28,23,5
2016-07-29,0,2
2016-07-29,1,3
2016-07-29,2,1
2016-07-29,8,9
2016-07-29,9,36
2016-07-29,10,26
2016-07-29,11,2
2016-07-29,12,7
2016-07-29,13,19
2016-07-29,14,21
2016-07-29,15,8
2016-07-29,16,21
2016-07-29,17,6
2016-07-29,19,4
2016-07-29,20,16
2016-07-29,21,2
2016-07-29,22,3
2016-07-29,23,3
2016-07-30,0,10
2016-07-30,1,11
2016-07-30,3,9
2016-07-30,7,1
2016-07-30,8,26
2016-07-30,9,18
2016-07-30,10,8
2016-07-30,11,6
2016-07-30,12,3
2016-07-30,13,10
2016-07-30,14,5
2016-07-30,15,2
2016-07-30,16,6
2016-07-30,17,2
2016-07-30,19,4
2016-07-30,20,10
2016-07-30,21,11
2016-07-31,0,8
2016-07-31,8,1
2016-07-31,9,4
2016-07-31,10,4
2016-07-31,11,1
2016-07-31,12,13
2016-07-31,13,28
2016-07-31,14,12
2016-07-31,15,8
2016-07-31,16,13
2016-07-31,17,2
2016-07-31,18,1
2016-07-31,19,8
2016-07-31,20,12
2016-07-31,21,13
2016-07-31,22,2
2016-08-01,0,3
2016-08-01,2,1
2016-08-01,8,5
2016-08-01,9,16
2016-08-01,10,48
2016-08-01,11,13
2016-08-01,12,23
2016-08-01,13,23
2016-08-01,14,18
2016-08-01,15,16
2016-08-01,16,12
2016-08-01,17,2
2016-08-01,18,1
2016-08-01,19,14
2016-08-01,20,18
2016-08-01,21,13
2016-08-01,23,2
2016-08-02,0,7
2016-08-02,2,1
2016-08-02,8,11
2016-08-02,9,31
2016-08-02,10,28
2016-08-02,11,21
2016-08-02,12,19
2016-08-02,13,29
2016-08-02,14,24
2016-08-02,15,13
2016-08-02,16,7
2016-08-02,17,9
2016-08-02,18,3
2016-08-02,19,9
2016-08-02,20,36
2016-08-02,21,25
2016-08-02,22,15
2016-08-03,0,8
2016-08-03,1,29
2016-08-03,2,16
2016-08-03,8,11
2016-08-03,9,35
2016-08-03,10,19
2016-08-03,11,16
2016-08-03,12,25
2016-08-03,13,39
2016-08-03,14,31
2016-08-03,15,18
2016-08-03,16,16
2016-08-03,17,10
2016-08-03,18,2
2016-08-03,19,6
2016-08-03,20,14
2016-08-03,21,14
2016-08-03,22,16
2016-08-03,23,5
2016-08-04,0,2
2016-08-04,3,1
2016-08-04,5,2
2016-08-04,8,6
2016-08-04,9,22
2016-08-04,10,18
2016-08-04,11,14
2016-08-04,12,7
2016-08-04,13,16
2016-08-04,14,16
2016-08-04,15,9
2016-08-04,16,20
2016-08-04,17,10
2016-08-04,18,6
2016-08-04,19,16
2016-08-04,20,12
2016-08-04,21,19
2016-08-04,22,6
2016-08-04,23,2
2016-08-05,0,3
2016-08-05,3,2
2016-08-05,5,1
2016-08-05,8,11
2016-08-05,9,36
2016-08-05,10,14
2016-08-05,12,3
2016-08-05,13,7
2016-08-05,14,10
2016-08-05,15,19
2016-08-05,16,11
2016-08-05,17,14
2016-08-05,18,1
2016-08-05,19,4
2016-08-05,20,10
2016-08-05,21,5
2016-08-05,22,2
2016-08-05,23,1
2016-08-06,1,2
2016-08-06,5,1
2016-08-06,8,10
2016-08-06,9,20
2016-08-06,10,25
2016-08-06,11,4
2016-08-06,12,1
2016-08-06,13,11
2016-08-06,14,15
2016-08-06,15,6
2016-08-06,16,18
2016-08-06,17,5
2016-08-06,19,1
2016-08-06,20,17
2016-08-06,21,4
2016-08-06,22,1
2016-08-06,23,7
2016-08-07,0,1
2016-08-07,1,11
2016-08-07,2,4
2016-08-07,8,28
2016-08-07,9,24
2016-08-07,10,14
2016-08-07,11,5
2016-08-07,12,7
2016-08-07,13,6
2016-08-07,14,18
2016-08-07,15,11
2016-08-07,16,14
2016-08-07,17,5
2016-08-07,20,2
2016-08-07,21,7
2016-08-07,22,1
2016-08-08,0,1
2016-08-08,1,9
2016-08-08,2,4
2016-08-08,8,10
2016-08-08,9,28
2016-08-08,10,24
2016-08-08,11,15
2016-08-08,12,20
2016-08-08,13,19
2016-08-08,14,20
2016-08-08,15,33
2016-08-08,16,25
2016-08-08,17,10
2016-08-08,19,1
2016-08-08,20,14
2016-08-08,21,8
2016-08-08,22,3
2016-08-08,23,1
2016-08-09,0,1
2016-08-09,1,6
2016-08-09,2,1
2016-08-09,8,10
2016-08-09,9,17
2016-08-09,10,16
2016-08-09,11,9
2016-08-09,12,17
2016-08-09,13,43
2016-08-09,14,21
2016-08-09,15,7
2016-08-09,16,5
2016-08-09,17,2
2016-08-09,18,3
2016-08-09,19,12
2016-08-09,20,16
2016-08-09,21,8
2016-08-09,22,2
2016-08-10,0,12
2016-08-10,1,6
2016-08-10,2,2
2016-08-10,8,12
2016-08-10,9,34
2016-08-10,10,26
2016-08-10,11,7
2016-08-10,12,24
2016-08-10,13,28
2016-08-10,14,17
2016-08-10,15,2
2016-08-10,16,15
2016-08-10,17,5
2016-08-10,19,6
2016-08-10,20,8
2016-08-10,21,28
2016-08-10,22,10
2016-08-10,23,1
2016-08-11,0,7
2016-08-11,1,19
2016-08-11,2,2
2016-08-11,8,16
2016-08-11,9,33
2016-08-11,10,53
2016-08-11,11,9
2016-08-11,12,22
2016-08-11,13,27
2016-08-11,14,27
2016-08-11,15,8
2016-08-11,16,6
2016-08-11,17,2
2016-08-11,18,2
2016-08-11,19,12
2016-08-11,20,32
2016-08-11,21,20
2016-08-11,22,7
2016-08-11,23,12
2016-08-12,0,15
2016-08-12,1,6
2016-08-12,2,4
2016-08-12,8,13
2016-08-12,9,11
2016-08-12,10,23
2016-08-12,11,17
2016-08-12,12,14
2016-08-12,13,26
2016-08-12,14,15
2016-08-12,15,10
2016-08-12,16,14
2016-08-12,17,11
2016-08-12,18,1
2016-08-12,19,5
2016-08-12,20,5
2016-08-12,21,6
2016-08-12,22,1
2016-08-12,23,4
2016-08-13,0,19
2016-08-13,1,3
2016-08-13,2,3
2016-08-13,3,1
2016-08-13,8,14
2016-08-13,9,17
2016-08-13,10,20
2016-08-13,11,12
2016-08-13,12,10
2016-08-13,13,1
2016-08-13,14,9
2016-08-13,15,7
2016-08-13,16,4
2016-08-13,17,11
2016-08-13,19,8
2016-08-13,20,9
2016-08-13,21,12
2016-08-13,23,1
2016-08-14,0,1
2016-08-14,1,2
2016-08-14,2,1
2016-08-14,3,1
2016-08-14,8,5
2016-08-14,9,15
2016-08-14,10,6
2016-08-14,11,3
2016-08-14,12,18
2016-08-14,13,21
2016-08-14,14,12
2016-08-14,15,7
2016-08-14,16,8
2016-08-14,17,5
2016-08-14,18,2
2016-08-14,19,6
2016-08-14,20,6
2016-08-14,21,2
2016-08-14,22,2
2016-08-14,23,7
2016-08-15,0,6
2016-08-15,1,2
2016-08-15,2,7
2016-08-15,8,16
2016-08-15,9,44
2016-08-15,10,45
2016-08-15,11,22
2016-08-15,12,19
2016-08-15,13,21
2016-08-15,14,32
2016-08-15,15,13
2016-08-15,16,14
2016-08-15,17,12
2016-08-15,18,7
2016-08-15,19,7
2016-08-15,20,8
2016-08-15,21,6
2016-08-15,22,9
2016-08-15,23,6
2016-08-16,0,11
2016-08-16,1,3
2016-08-16,3,11
2016-08-16,8,28
2016-08-16,9,56
2016-08-16,10,44
2016-08-16,11,10
2016-08-16,12,24
2016-08-16,13,46
2016-08-16,14,21
2016-08-16,15,15
2016-08-16,16,13
2016-08-16,17,12
2016-08-16,19,6
2016-08-16,20,12
2016-08-16,21,13
2016-08-16,23,2
2016-08-17,0,6
2016-08-17,1,4
2016-08-17,2,8
2016-08-17,3,5
2016-08-17,4,2
2016-08-17,5,1
2016-08-17,7,1
2016-08-17,8,22
2016-08-17,9,31
2016-08-17,10,24
2016-08-17,11,13
2016-08-17,12,15
2016-08-17,13,52
2016-08-17,14,42
2016-08-17,15,30
2016-08-17,16,8
2016-08-17,17,7
2016-08-17,18,1
2016-08-17,19,14
2016-08-17,20,18
2016-08-17,21,7
2016-08-17,22,2
2016-08-18,1,1
2016-08-18,2,1
2016-08-18,8,15
2016-08-18,9,20
2016-08-18,10,22
2016-08-18,11,12
2016-08-18,12,20
2016-08-18,13,22
2016-08-18,14,34
2016-08-18,15,12
2016-08-18,16,9
2016-08-18,17,8
2016-08-18,19,9
2016-08-18,20,21
2016-08-18,21,7
2016-08-18,22,2
2016-08-19,0,11
2016-08-19,1,13
2016-08-19,2,6
2016-08-19,4,1
2016-08-19,5,1
2016-08-19,8,21
2016-08-19,9,48
2016-08-19,10,31
2016-08-19,11,8
2016-08-19,12,20
2016-08-19,13,36
2016-08-19,14,32
2016-08-19,15,14
2016-08-19,16,9
2016-08-19,17,5
2016-08-19,19,3
2016-08-19,20,20
2016-08-19,21,19
2016-08-19,22,13
2016-08-19,23,5
2016-08-20,0,15
2016-08-20,1,6
2016-08-20,2,12
2016-08-20,3,3
2016-08-20,8,2
2016-08-20,9,31
2016-08-20,10,19
2016-08-20,11,8
2016-08-20,12,19
2016-08-20,13,9
2016-08-20,14,7
2016-08-20,15,5
2016-08-20,16,1
2016-08-20,17,4
2016-08-20,19,9
2016-08-20,20,19
2016-08-20,21,3
2016-08-20,22,3
2016-08-20,23,6
2016-08-21,0,5
2016-08-21,4,3
2016-08-21,8,1
2016-08-21,9,9
2016-08-21,10,4
2016-08-21,11,9
2016-08-21,12,10
2016-08-21,13,19
2016-08-21,14,10
2016-08-21,15,12
2016-08-21,16,4
2016-08-21,17,9
2016-08-21,18,4
2016-08-21,19,15
2016-08-21,20,11
2016-08-21,21,8
2016-08-21,22,2
2016-08-21,23,4
2016-08-22,0,14
2016-08-22,1,18
2016-08-22,2,1
2016-08-22,8,13
2016-08-22,9,29
2016-08-22,10,49
2016-08-22,11,21
2016-08-22,12,23
2016-08-22,13,45
2016-08-22,14,13
2016-08-22,15,11
2016-08-22,16,15
2016-08-22,17,14
2016-08-22,19,4
2016-08-22,20,2
2016-08-22,21,15
2016-08-22,22,7
2016-08-22,23,1
2016-08-23,0,10
2016-08-23,1,7
2016-08-23,2,2
2016-08-23,3,4
2016-08-23,5,1
2016-08-23,8,19
2016-08-23,9,30
2016-08-23,10,36
2016-08-23,11,9
2016-08-23,12,14
2016-08-23,13,35
2016-08-23,14,21
2016-08-23,15,19
2016-08-23,16,8
2016-08-23,17,20
2016-08-23,18,1
2016-08-23,19,6
2016-08-23,20,19
2016-08-23,21,18
2016-08-23,22,3
2016-08-23,23,1
2016-08-24,0,19
2016-08-24,1,6
2016-08-24,2,5
2016-08-24,3,1
2016-08-24,8,14
2016-08-24,9,39
2016-08-24,10,31
2016-08-24,11,12
2016-08-24,12,30
2016-08-24,13,45
2016-08-24,14,33
2016-08-24,15,25
2016-08-24,16,13
2016-08-24,17,4
2016-08-24,18,4
2016-08-24,19,16
2016-08-24,20,28
2016-08-24,21,22
2016-08-24,22,3
2016-08-25,0,4
2016-08-25,1,3
2016-08-25,3,1
2016-08-25,8,16
2016-08-25,9,49
2016-08-25,10,32
2016-08-25,11,8
2016-08-25,12,33
2016-08-25,13,10
2016-08-25,14,14
2016-08-25,15,33
2016-08-25,16,21
2016-08-25,17,7
2016-08-25,18,1
2016-08-25,19,3
2016-08-25,20,9
2016-08-25,21,6
2016-08-25,22,1
2016-08-26,1,1
2016-08-26,2,1
2016-08-26,8,10
2016-08-26,9,36
2016-08-26,10,25
2016-08-26,11,17
2016-08-26,12,37
2016-08-26,13,42
2016-08-26,14,14
2016-08-26,15,16
2016-08-26,16,17
2016-08-26,17,10
2016-08-26,19,2
2016-08-26,20,11
2016-08-26,21,9
2016-08-26,22,9
2016-08-26,23,1
2016-08-27,0,10
2016-08-27,3,4
2016-08-27,8,17
2016-08-27,9,30
2016-08-27,10,13
2016-08-27,11,2
2016-08-27,12,11
2016-08-27,13,24
2016-08-27,14,18
2016-08-27,15,9
2016-08-27,16,2
2016-08-27,17,4
2016-08-27,19,12
2016-08-27,20,17
2016-08-27,22,4
2016-08-27,23,1
2016-08-28,0,6
2016-08-28,1,1
2016-08-28,2,6
2016-08-28,3,2
2016-08-28,8,6
2016-08-28,9,10
2016-08-28,10,16
2016-08-28,11,8
2016-08-28,12,16
2016-08-28,13,8
2016-08-28,14,4
2016-08-28,15,9
2016-08-28,16,3
2016-08-28,17,5
2016-08-28,18,3
2016-08-28,19,3
2016-08-28,20,10
2016-08-28,21,6
2016-08-28,22,6
2016-08-28,23,5
2016-08-29,0,5
2016-08-29,1,22
2016-08-29,2,10
2016-08-29,4,2
2016-08-29,8,14
2016-08-29,9,38
2016-08-29,10,40
2016-08-29,11,11
2016-08-29,12,5
2016-08-29,13,11
2016-08-29,14,26
2016-08-29,15,18
2016-08-29,16,3
2016-08-29,17,2
2016-08-29,18,3
2016-08-29,19,18
2016-08-29,20,30
2016-08-29,21,19
2016-08-29,22,3
2016-08-29,23,3
2016-08-30,0,12
2016-08-30,1,2
2016-08-30,2,1
2016-08-30,3,1
2016-08-30,7,1
2016-08-30,8,18
2016-08-30,9,45
2016-08-30,10,25
2016-08-30,11,17
2016-08-30,12,20
2016-08-30,13,35
2016-08-30,14,26
2016-08-30,15,21
2016-08-30,16,27
2016-08-30,17,14
2016-08-30,18,1
2016-08-30,19,14
2016-08-30,20,10
2016-08-30,21,6
2016-08-30,22,7
2016-08-30,23,7
2016-08-31,0,23
2016-08-31,1,8
2016-08-31,2,4
2016-08-31,4,1
2016-08-31,8,31
2016-08-31,9,38
2016-08-31,10,42
2016-08-31,11,16
2016-08-31,12,25
2016-08-31,13,26
2016-08-31,14,35
2016-08-31,15,36
2016-08-31,16,15
2016-08-31,17,14
2016-08-31,18,2
2016-08-31,19,26
2016-08-31,20,10
2016-08-31,21,8
2016-08-31,22,8
2016-08-31,23,2
2016-09-01,2,5
2016-09-01,3,2
2016-09-01,8,1
2016-09-01,9,22
2016-09-01,10,13
2016-09-01,11,34
2016-09-01,12,24
2016-09-01,13,27
2016-09-01,14,39
2016-09-01,15,22
2016-09-01,16,18
2016-09-01,17,14
2016-09-01,18,3
2016-09-01,19,23
2016-09-01,20,19
2016-09-01,21,12
2016-09-01,22,7
2016-09-02,0,1
2016-09-02,1,9
2016-09-02,8,19
2016-09-02,9,62
2016-09-02,10,44
2016-09-02,11,31
2016-09-02,12,20
2016-09-02,13,61
2016-09-02,14,20
2016-09-02,15,22
2016-09-02,16,34
2016-09-02,17,4
2016-09-02,18,1
2016-09-02,19,7
2016-09-02,20,19
2016-09-02,21,6
2016-09-02,22,2
2016-09-02,23,1
2016-09-03,0,1
2016-09-03,1,6
2016-09-03,2,5
2016-09-03,8,19
2016-09-03,9,32
2016-09-03,10,15
2016-09-03,11,3
2016-09-03,12,14
2016-09-03,13,26
2016-09-03,14,7
2016-09-03,15,7
2016-09-03,16,7
2016-09-03,17,9
2016-09-03,18,3
2016-09-03,19,9
2016-09-03,20,15
2016-09-03,21,2
2016-09-03,22,4
2016-09-03,23,1
2016-09-04,0,10
2016-09-04,1,13
2016-09-04,2,6
2016-09-04,5,2
2016-09-04,7,1
2016-09-04,8,23
2016-09-04,9,24
2016-09-04,10,6
2016-09-04,11,6
2016-09-04,12,28
2016-09-04,13,23
2016-09-04,14,8
2016-09-04,15,8
2016-09-04,16,3
2016-09-04,17,16
2016-09-04,18,3
2016-09-04,19,17
2016-09-04,20,22
2016-09-04,21,23
2016-09-04,22,8
2016-09-04,23,4
2016-09-05,0,13
2016-09-05,1,9
2016-09-05,2,10
2016-09-05,8,7
2016-09-05,9,47
2016-09-05,10,29
2016-09-05,11,10
2016-09-05,12,25
2016-09-05,13,27
2016-09-05,14,30
2016-09-05,15,25
2016-09-05,16,24
2016-09-05,17,12
2016-09-05,18,2
2016-09-05,19,6
2016-09-05,20,26
2016-09-05,21,12
2016-09-05,22,10
2016-09-05,23,2
2016-09-06,0,8
2016-09-06,1,13
2016-09-06,4,1
2016-09-06,5,3
2016-09-06,8,11
2016-09-06,9,71
2016-09-06,10,74
2016-09-06,11,28
2016-09-06,12,25
2016-09-06,13,53
2016-09-06,14,41
2016-09-06,15,14
2016-09-06,16,3
2016-09-06,17,17
2016-09-06,18,7
2016-09-06,19,18
2016-09-06,20,20
2016-09-06,21,16
2016-09-06,22,1
2016-09-06,23,1
2016-09-07,0,5
2016-09-07,2,1
2016-09-07,8,20
2016-09-07,9,23
2016-09-07,10,39
2016-09-07,11,27
2016-09-07,12,29
2016-09-07,13,63
2016-09-07,14,16
2016-09-07,15,25
2016-09-07,16,16
2016-09-07,17,5
2016-09-07,18,6
2016-09-07,19,9
2016-09-07,20,24
2016-09-07,21,10
2016-09-07,22,2
2016-09-08,1,2
2016-09-08,2,1
2016-09-08,8,26
2016-09-08,9,27
2016-09-08,10,41
2016-09-08,11,19
2016-09-08,12,12
2016-09-08,13,18
2016-09-08,14,27
2016-09-08,15,14
2016-09-08,16,7
2016-09-08,17,13
2016-09-08,18,1
2016-09-08,19,10
2016-09-08,20,5
2016-09-08,21,6
2016-09-08,22,3
2016-09-08,23,2
2016-09-09,0,4
2016-09-09,1,5
2016-09-09,2,2
2016-09-09,8,7
2016-09-09,9,43
2016-09-09,10,50
2016-09-09,11,38
2016-09-09,12,22
2016-09-09,13,28
2016-09-09,14,27
2016-09-09,15,20
2016-09-09,16,15
2016-09-09,17,6
2016-09-09,19,3
2016-09-09,20,3
2016-09-09,21,8
2016-09-09,22,2
2016-09-10,1,2
2016-09-10,9,20
2016-09-10,10,22
2016-09-10,11,4
2016-09-10,12,8
2016-09-10,13,28
2016-09-10,14,13
2016-09-10,15,9
2016-09-10,16,13
2016-09-10,17,2
2016-09-10,19,1
2016-09-10,21,9
2016-09-10,22,1
2016-09-10,23,1
2016-09-11,2,1
2016-09-11,8,10
2016-09-11,9,32
2016-09-11,10,23
2016-09-11,11,14
2016-09-11,12,16
2016-09-11,13,16
2016-09-11,14,12
2016-09-11,15,4
2016-09-11,16,6
2016-09-11,17,3
2016-09-11,19,11
2016-09-11,20,15
2016-09-11,21,14
2016-09-11,23,10
2016-09-12,0,7
2016-09-12,1,9
2016-09-12,2,4
2016-09-12,4,3
2016-09-12,8,10
2016-09-12,9,42
2016-09-12,10,25
2016-09-12,11,24
2016-09-12,12,31
2016-09-12,13,41
2016-09-12,14,35
2016-09-12,15,27
2016-09-12,16,16
2016-09-12,17,8
2016-09-12,18,10
2016-09-12,19,17
2016-09-12,20,15
2016-09-12,21,6
2016-09-12,22,15
2016-09-12,23,2
2016-09-13,2,14
2016-09-13,4,2
2016-09-13,5,1
2016-09-13,8,11
2016-09-13,9,27
2016-09-13,10,34
2016-09-13,11,23
2016-09-13,12,22
2016-09-13,13,37
2016-09-13,14,30
2016-09-13,15,23
2016-09-13,16,19
2016-09-13,17,30
2016-09-13,18,2
2016-09-13,19,26
2016-09-13,20,24
2016-09-13,21,7
2016-09-13,22,1
2016-09-13,23,1
2016-09-14,0,3
2016-09-14,2,6
2016-09-14,5,4
2016-09-14,8,1
2016-09-14,9,52
2016-09-14,10,45
2016-09-14,11,31
2016-09-14,12,34
2016-09-14,13,39
2016-09-14,14,50
2016-09-14,15,38
2016-09-14,16,17
2016-09-14,17,22
2016-09-14,18,2
2016-09-14,19,8
2016-09-14,20,19
2016-09-14,21,4
2016-09-14,22,6
2016-09-15,0,10
2016-09-15,1,5
2016-09-15,4,1
2016-09-15,5,5
2016-09-15,8,5
2016-09-15,9,21
2016-09-15,10,49
2016-09-15,11,1
2016-09-15,12,2
2016-09-15,13,24
2016-09-15,14,11
2016-09-15,15,14
2016-09-15,16,5
2016-09-15,17,18
2016-09-15,18,2
2016-09-15,19,9
2016-09-15,20,29
2016-09-15,21,4
2016-09-15,22,7
2016-09-15,23,2
2016-09-16,0,8
2016-09-16,2,7
2016-09-16,3,1
2016-09-16,8,7
2016-09-16,9,34
2016-09-16,10,48
2016-09-16,11,23
2016-09-16,12,14
2016-09-16,13,21
2016-09-16,14,19
2016-09-16,15,23
2016-09-16,16,9
2016-09-16,17,8
2016-09-16,18,3
2016-09-16,19,1
2016-09-16,20,12
2016-09-16,21,7
2016-09-17,8,6
2016-09-17,9,3
2016-09-17,10,1
2016-09-17,11,6
2016-09-17,12,15
2016-09-17,13,9
2016-09-17,14,27
2016-09-17,15,7
2016-09-17,16,19
2016-09-17,17,7
2016-09-17,19,2
2016-09-17,20,1
2016-09-17,21,2
2016-09-17,22,1
2016-09-17,23,1
2016-09-18,0,3
2016-09-18,8,7
2016-09-18,9,6
2016-09-18,10,11
2016-09-18,11,12
2016-09-18,12,14
2016-09-18,13,19
2016-09-18,14,22
2016-09-18,15,20
2016-09-18,16,21
2016-09-18,17,7
2016-09-18,18,2
2016-09-18,19,7
2016-09-18,20,8
2016-09-18,21,8
2016-09-19,0,5
2016-09-19,1,6
2016-09-19,2,1
2016-09-19,3,4
2016-09-19,8,13
2016-09-19,9,34
2016-09-19,10,42
2016-09-19,11,17
2016-09-19,12,33
2016-09-19,13,15
2016-09-19,14,34
2016-09-19,15,18
2016-09-19,16,30
2016-09-19,17,24
2016-09-19,18,12
2016-09-19,19,12
2016-09-19,20,16
2016-09-19,21,8
2016-09-19,22,19
2016-09-19,23,1
2016-09-20,0,2
2016-09-20,2,10
2016-09-20,3,9
2016-09-20,5,2
2016-09-20,8,10
2016-09-20,9,31
2016-09-20,10,49
2016-09-20,11,50
2016-09-20,12,19
2016-09-20,13,46
2016-09-20,14,54
2016-09-20,15,32
2016-09-20,16,32
2016-09-20,17,32
2016-09-20,18,6
2016-09-20,19,17
2016-09-20,20,27
2016-09-20,21,22
2016-09-20,22,4
2016-09-20,23,4
2016-09-21,0,4
2016-09-21,1,11
2016-09-21,2,1
2016-09-21,8,3
2016-09-21,9,23
2016-09-21,10,19
2016-09-21,11,26
2016-09-21,12,35
2016-09-21,13,35
2016-09-21,14,18
2016-09-21,15,26
2016-09-21,16,22
2016-09-21,17,15
2016-09-21,18,2
2016-09-21,19,11
2016-09-21,20,15
2016-09-21,21,5
2016-09-21,22,11
2016-09-21,23,2
2016-09-22,0,4
2016-09-22,1,2
2016-09-22,8,6
2016-09-22,9,33
2016-09-22,10,27
2016-09-22,11,13
2016-09-22,12,29
2016-09-22,13,39
2016-09-22,14,29
2016-09-22,15,27
2016-09-22,16,29
2016-09-22,17,11
2016-09-22,19,14
2016-09-22,20,13
2016-09-22,21,15
2016-09-22,22,2
2016-09-22,23,1
2016-09-23,0,1
2016-09-23,1,3
2016-09-23,2,2
2016-09-23,8,9
2016-09-23,9,33
2016-09-23,10,51
2016-09-23,11,15
2016-09-23,12,18
2016-09-23,13,32
2016-09-23,14,19
2016-09-23,15,24
2016-09-23,16,27
2016-09-23,17,16
2016-09-23,18,3
2016-09-23,19,7
2016-09-23,20,22
2016-09-23,21,24
2016-09-23,23,1
2016-09-24,0,1
2016-09-24,1,1
2016-09-24,2,1
2016-09-24,4,1
2016-09-24,8,7
2016-09-24,9,19
2016-09-24,10,12
2016-09-24,11,13
2016-09-24,12,19
2016-09-24,13,14
2016-09-24,14,7
2016-09-24,15,3
2016-09-24,16,7
2016-09-24,17,1
2016-09-24,18,2
2016-09-24,19,16
2016-09-24,20,10
2016-09-24,21,7
2016-09-24,22,8
2016-09-25,0,4
2016-09-25,1,8
2016-09-25,8,16
2016-09-25,9,13
2016-09-25,10,4
2016-09-25,11,5
2016-09-25,12,19
2016-09-25,13,16
2016-09-25,14,7
2016-09-25,15,19
2016-09-25,16,15
2016-09-25,17,6
2016-09-25,19,6
2016-09-25,20,24
2016-09-25,21,9
2016-09-25,22,14
2016-09-26,0,5
2016-09-26,1,2
2016-09-26,2,1
2016-09-26,3,1
2016-09-26,8,13
2016-09-26,9,37
2016-09-26,10,66
2016-09-26,11,26
2016-09-26,12,39
2016-09-26,13,32
2016-09-26,14,36
2016-09-26,15,32
2016-09-26,16,24
2016-09-26,17,17
2016-09-26,18,1
2016-09-26,19,9
2016-09-26,20,10
2016-09-26,21,5
2016-09-26,22,5
2016-09-27,0,1
2016-09-27,8,1
2016-09-27,9,23
2016-09-27,10,23
2016-09-27,11,28
2016-09-27,12,27
2016-09-27,13,41
2016-09-27,14,31
2016-09-27,15,29
2016-09-27,16,41
2016-09-27,17,17
2016-09-27,18,3
2016-09-27,19,9
2016-09-27,20,24
2016-09-27,21,27
2016-09-27,22,12
2016-09-27,23,3
2016-09-28,0,18
2016-09-28,1,27
2016-09-28,2,17
2016-09-28,9,13
2016-09-28,10,8
2016-09-28,11,16
2016-09-28,12,4
2016-09-28,13,14
2016-09-28,14,19
2016-09-28,15,15
2016-09-28,16,13
2016-09-28,17,5
2016-09-28,18,1
2016-09-28,19,10
2016-09-28,20,23
2016-09-28,21,18
2016-09-28,22,5
2016-09-28,23,5
2016-09-29,0,8
2016-09-29,1,8
2016-09-29,2,4
2016-09-29,8,10
2016-09-29,9,42
2016-09-29,10,42
2016-09-29,11,53
2016-09-29,12,18
2016-09-29,13,33
2016-09-29,14,59
2016-09-29,15,21
2016-09-29,16,18
2016-09-29,17,7
2016-09-29,18,4
2016-09-29,19,12
2016-09-29,20,19
2016-09-29,21,13
2016-09-29,22,5
2016-09-29,23,9
2016-09-30,0,9
2016-09-30,1,2
2016-09-30,2,4
2016-09-30,3,2
2016-09-30,8,16
2016-09-30,9,27
2016-09-30,10,33
2016-09-30,11,27
2016-09-30,12,38
2016-09-30,13,23
2016-09-30,14,2
2016-09-30,15,18
2016-09-30,16,7
2016-09-30,17,8
2016-09-30,18,5
2016-09-30,19,4
2016-09-30,20,4
2016-09-30,21,1
2016-09-30,23,2
2016-10-01,1,4
2016-10-01,8,17
2016-10-01,9,23
2016-10-01,10,24
2016-10-01,11,26
2016-10-01,12,20
2016-10-01,13,25
2016-10-01,14,11
2016-10-01,15,22
2016-10-01,16,13
2016-10-01,17,8
2016-10-01,18,1
2016-10-01,19,2
2016-10-01,20,4
2016-10-01,21,23
2016-10-01,23,1
2016-10-02,0,24
2016-10-02,1,12
2016-10-02,2,4
2016-10-02,8,10
2016-10-02,9,38
2016-10-02,10,20
2016-10-02,11,4
2016-10-02,12,2
2016-10-02,13,15
2016-10-02,14,18
2016-10-02,15,10
2016-10-02,16,7
2016-10-02,17,2
2016-10-02,19,1
2016-10-02,20,19
2016-10-02,21,28
2016-10-02,22,1
2016-10-02,23,5
2016-10-03,0,5
2016-10-03,1,5
2016-10-03,2,7
2016-10-03,4,1
2016-10-03,8,6
2016-10-03,9,33
2016-10-03,10,26
2016-10-03,11,7
2016-10-03,12,30
2016-10-03,13,22
2016-10-03,14,30
2016-10-03,15,31
2016-10-03,16,30
2016-10-03,17,28
2016-10-03,18,4
2016-10-03,19,6
2016-10-03,20,2
2016-10-03,21,14
2016-10-03,22,4
2016-10-04,8,2
2016-10-04,9,8
2016-10-04,10,17
2016-10-04,11,4
2016-10-04,12,5
2016-10-04,13,20
2016-10-04,14,31
2016-10-04,15,37
2016-10-04,16,34
2016-10-04,17,18
2016-10-04,18,3
2016-10-04,19,9
2016-10-04,20,15
2016-10-04,21,5
2016-10-04,22,7
2016-10-04,23,1
2016-10-05,0,6
2016-10-05,1,7
2016-10-05,6,1
2016-10-05,7,1
2016-10-05,8,1
2016-10-05,9,28
2016-10-05,10,44
2016-10-05,11,17
2016-10-05,12,17
2016-10-05,13,22
2016-10-05,14,13
2016-10-05,15,18
2016-10-05,16,7
2016-10-05,17,9
2016-10-05,19,12
2016-10-05,20,16
2016-10-05,21,17
2016-10-05,22,1
2016-10-06,0,1
2016-10-06,1,1
2016-10-06,4,5
2016-10-06,5,6
2016-10-06,8,5
2016-10-06,9,17
2016-10-06,10,43
2016-10-06,11,30
2016-10-06,12,39
2016-10-06,13,32
2016-10-06,14,13
2016-10-06,15,35
2016-10-06,16,20
2016-10-06,17,4
2016-10-06,18,1
2016-10-06,19,4
2016-10-06,20,27
2016-10-06,21,27
2016-10-06,22,11
2016-10-06,23,11
2016-10-07,0,11
2016-10-07,1,2
2016-10-07,2,13
2016-10-07,3,4
2016-10-07,8,2
2016-10-07,9,30
2016-10-07,10,38
2016-10-07,11,25
2016-10-07,12,52
2016-10-07,13,49
2016-10-07,14,32
2016-10-07,15,10
2016-10-07,16,24
2016-10-07,17,7
2016-10-07,18,5
2016-10-07,19,30
2016-10-07,20,7
2016-10-07,21,12
2016-10-07,22,4
2016-10-08,4,1
2016-10-08,8,12
2016-10-08,9,13
2016-10-08,10,17
2016-10-08,11,2
2016-10-08,12,12
2016-10-08,13,11
2016-10-08,14,3
2016-10-08,15,11
2016-10-08,16,13
2016-10-08,17,17
2016-10-08,19,35
2016-10-08,20,23
2016-10-08,21,19
2016-10-08,22,8
2016-10-08,23,3
2016-10-09,0,8
2016-10-09,1,2
2016-10-09,4,2
2016-10-09,5,4
2016-10-09,7,1
2016-10-09,8,19
2016-10-09,9,30
2016-10-09,10,22
2016-10-09,11,8
2016-10-09,12,15
2016-10-09,13,27
2016-10-09,14,20
2016-10-09,15,16
2016-10-09,16,13
2016-10-09,17,11
2016-10-09,18,8
2016-10-09,19,7
2016-10-09,20,32
2016-10-09,21,8
2016-10-09,23,2
2016-10-10,0,7
2016-10-10,1,1
2016-10-10,8,24
2016-10-10,9,26
2016-10-10,10,38
2016-10-10,11,39
2016-10-10,12,46
2016-10-10,13,48
2016-10-10,14,38
2016-10-10,15,23
2016-10-10,16,37
2016-10-10,17,12
2016-10-10,18,2
2016-10-10,19,5
2016-10-10,20,17
2016-10-10,21,24
2016-10-10,22,4
2016-10-10,23,2
2016-10-11,0,6
2016-10-11,1,3
2016-10-11,5,1
2016-10-11,8,15
2016-10-11,9,33
2016-10-11,10,54
2016-10-11,11,69
2016-10-11,12,43
2016-10-11,13,31
2016-10-11,14,39
2016-10-11,15,52
2016-10-11,16,25
2016-10-11,17,16
2016-10-11,18,9
2016-10-11,19,14
2016-10-11,20,25
2016-10-11,21,13
2016-10-11,22,5
2016-10-12,0,9
2016-10-12,2,3
2016-10-12,8,12
2016-10-12,9,15
2016-10-12,10,28
2016-10-12,11,20
2016-10-12,12,28
2016-10-12,13,27
2016-10-12,14,60
2016-10-12,15,46
2016-10-12,16,21
2016-10-12,17,17
2016-10-12,18,11
2016-10-12,19,16
2016-10-12,20,21
2016-10-12,21,19
2016-10-12,22,1
2016-10-12,23,3
2016-10-13,1,2
2016-10-13,3,2
2016-10-13,5,2
2016-10-13,8,12
2016-10-13,9,37
2016-10-13,10,33
2016-10-13,11,15
2016-10-13,12,33
2016-10-13,13,54
2016-10-13,14,47
2016-10-13,15,22
2016-10-13,16,22
2016-10-13,17,7
2016-10-13,18,5
2016-10-13,19,7
2016-10-13,20,14
2016-10-13,21,24
2016-10-13,22,3
2016-10-13,23,6
2016-10-14,0,19
2016-10-14,1,5
2016-10-14,2,5
2016-10-14,4,1
2016-10-14,5,1
2016-10-14,8,1
2016-10-14,9,38
2016-10-14,10,40
2016-10-14,11,41
2016-10-14,12,45
2016-10-14,13,35
2016-10-14,14,21
2016-10-14,15,14
2016-10-14,16,9
2016-10-14,17,14
2016-10-14,19,13
2016-10-14,20,36
2016-10-14,21,18
2016-10-14,22,3
2016-10-15,0,20
2016-10-15,1,20
2016-10-15,2,8
2016-10-15,3,2
2016-10-15,4,1
2016-10-15,8,23
2016-10-15,9,18
2016-10-15,10,17
2016-10-15,11,23
2016-10-15,12,39
2016-10-15,13,31
2016-10-15,14,13
2016-10-15,15,14
2016-10-15,16,16
2016-10-15,17,18
2016-10-15,18,2
2016-10-15,19,16
2016-10-15,20,15
2016-10-15,21,3
2016-10-15,22,1
2016-10-15,23,6
2016-10-16,0,12
2016-10-16,1,6
2016-10-16,3,1
2016-10-16,9,18
2016-10-16,10,25
2016-10-16,11,20
2016-10-16,12,6
2016-10-16,13,10
2016-10-16,14,7
2016-10-16,15,11
2016-10-16,16,16
2016-10-16,17,19
2016-10-16,18,4
2016-10-16,19,4
2016-10-16,20,18
2016-10-16,21,8
2016-10-16,22,3
2016-10-16,23,1
2016-10-17,0,5
2016-10-17,1,7
2016-10-17,8,9
2016-10-17,9,36
2016-10-17,10,53
2016-10-17,11,19
2016-10-17,12,40
2016-10-17,13,43
2016-10-17,14,47
2016-10-17,15,37
2016-10-17,16,16
2016-10-17,17,13
2016-10-17,18,3
2016-10-17,19,11
2016-10-17,20,25
2016-10-17,21,19
2016-10-17,22,1
2016-10-17,23,8
2016-10-18,0,3
2016-10-18,1,6
2016-10-18,2,2
2016-10-18,3,3
2016-10-18,5,2
2016-10-18,7,1
2016-10-18,8,34
2016-10-18,9,40
2016-10-18,10,42
2016-10-18,11,35
2016-10-18,12,33
2016-10-18,13,60
2016-10-18,14,74
2016-10-18,15,42
2016-10-18,16,51
2016-10-18,17,15
2016-10-18,18,3
2016-10-18,19,6
2016-10-18,20,23
2016-10-18,21,30
2016-10-18,22,12
2016-10-18,23,1
2016-10-19,0,1
2016-10-19,1,6
2016-10-19,2,4
2016-10-19,8,15
2016-10-19,9,42
2016-10-19,10,14
2016-10-19,11,11
2016-10-19,12,47
2016-10-19,13,64
2016-10-19,14,47
2016-10-19,15,36
2016-10-19,16,27
2016-10-19,17,14
2016-10-19,18,1
2016-10-19,19,38
2016-10-19,20,20
2016-10-19,21,23
2016-10-19,22,16
2016-10-19,23,2
2016-10-20,0,2
2016-10-20,2,3
2016-10-20,8,15
2016-10-20,9,39
2016-10-20,10,71
2016-10-20,11,39
2016-10-20,12,49
2016-10-20,13,42
2016-10-20,14,39
2016-10-20,15,38
2016-10-20,16,27
2016-10-20,17,7
2016-10-20,18,2
2016-10-20,19,5
2016-10-20,20,34
2016-10-20,21,25
2016-10-20,22,4
2016-10-20,23,3
2016-10-21,0,1
2016-10-21,1,4
2016-10-21,8,19
2016-10-21,9,40
2016-10-21,10,69
2016-10-21,11,28
2016-10-21,12,57
2016-10-21,13,42
2016-10-21,14,35
2016-10-21,15,15
2016-10-21,16,35
2016-10-21,17,9
2016-10-21,19,11
2016-10-21,20,13
2016-10-21,21,11
2016-10-21,22,16
2016-10-21,23,4
2016-10-22,0,2
2016-10-22,1,3
2016-10-22,2,1
2016-10-22,3,10
2016-10-22,7,3
2016-10-22,8,24
2016-10-22,9,60
2016-10-22,10,56
2016-10-22,11,31
2016-10-22,12,15
2016-10-22,13,15
2016-10-22,14,20
2016-10-22,15,28
2016-10-22,16,13
2016-10-22,17,4
2016-10-22,18,2
2016-10-22,19,4
2016-10-22,20,14
2016-10-22,21,17
2016-10-22,22,1
2016-10-22,23,2
2016-10-23,0,3
2016-10-23,1,4
2016-10-23,2,8
2016-10-23,3,1
2016-10-23,8,9
2016-10-23,9,8
2016-10-23,10,7
2016-10-23,11,23
2016-10-23,12,15
2016-10-23,13,45
2016-10-23,14,27
2016-10-23,15,26
2016-10-23,16,14
2016-10-23,17,10
2016-10-23,18,1
2016-10-23,19,9
2016-10-23,20,46
2016-10-23,21,18
2016-10-23,22,10
2016-10-23,23,2
2016-10-24,0,3
2016-10-24,3,1
2016-10-24,6,1
2016-10-24,8,19
2016-10-24,9,34
2016-10-24,10,53
2016-10-24,11,43
2016-10-24,12,43
2016-10-24,13,44
2016-10-24,14,55
2016-10-24,15,50
2016-10-24,16,25
2016-10-24,17,12
2016-10-24,18,1
2016-10-24,19,7
2016-10-24,20,32
2016-10-24,21,24
2016-10-24,22,1
2016-10-25,0,2
2016-10-25,1,7
2016-10-25,2,1
2016-10-25,8,2
2016-10-25,9,33
2016-10-25,10,41
2016-10-25,11,22
2016-10-25,12,38
2016-10-25,13,52
2016-10-25,14,41
2016-10-25,15,33
2016-10-25,16,19
2016-10-25,17,13
2016-10-25,18,3
2016-10-25,19,14
2016-10-25,20,31
2016-10-25,21,12
2016-10-25,22,7
2016-10-25,23,4
2016-10-26,0,1
2016-10-26,1,18
2016-10-26,7,1
2016-10-26,8,15
2016-10-26,9,45
2016-10-26,10,33
2016-10-26,11,28
2016-10-26,12,14
2016-10-26,13,48
2016-10-26,14,47
2016-10-26,15,24
2016-10-26,16,25
2016-10-26,17,30
2016-10-26,18,13
2016-10-26,19,11
2016-10-26,20,13
2016-10-26,21,15
2016-10-26,22,5
2016-10-27,0,11
2016-10-27,1,4
2016-10-27,2,3
2016-10-27,8,7
2016-10-27,9,34
2016-10-27,10,71
2016-10-27,11,35
2016-10-27,12,42
2016-10-27,13,74
2016-10-27,14,27
2016-10-27,15,25
2016-10-27,16,26
2016-10-27,17,12
2016-10-27,18,4
2016-10-27,19,10
2016-10-27,20,20
2016-10-27,21,23
2016-10-27,22,16
2016-10-27,23,3
2016-10-28,0,1
2016-10-28,2,1
2016-10-28,8,6
2016-10-28,9,17
2016-10-28,10,11
2016-10-28,11,12
2016-10-28,12,20
2016-10-28,13,15
2016-10-28,14,9
2016-10-28,15,16
2016-10-28,16,12
2016-10-28,17,5
2016-10-28,19,3
2016-10-28,20,11
2016-10-28,21,7
2016-10-28,22,3
2016-10-28,23,1
2016-10-29,0,19
2016-10-29,1,7
2016-10-29,8,11
2016-10-29,9,48
2016-10-29,10,23
2016-10-29,11,32
2016-10-29,12,36
2016-10-29,13,23
2016-10-29,14,16
2016-10-29,15,14
2016-10-29,16,21
2016-10-29,17,7
2016-10-29,19,3
2016-10-29,20,33
2016-10-29,21,18
2016-10-29,22,20
2016-10-29,23,2
2016-10-30,0,5
2016-10-30,1,1
2016-10-30,2,19
2016-10-30,3,3
2016-10-30,4,1
2016-10-30,8,28
2016-10-30,9,35
2016-10-30,10,31
2016-10-30,11,37
2016-10-30,12,46
2016-10-30,13,28
2016-10-30,14,27
2016-10-30,15,24
2016-10-30,16,28
2016-10-30,17,6
2016-10-30,19,21
2016-10-30,20,27
2016-10-30,21,17
2016-10-30,22,6
2016-10-30,23,14
2016-10-31,0,29
2016-10-31,1,22
2016-10-31,2,1
2016-10-31,3,1
2016-10-31,8,8
2016-10-31,9,34
2016-10-31,10,43
2016-10-31,11,27
2016-10-31,12,37
2016-10-31,13,64
2016-10-31,14,56
2016-10-31,15,37
2016-10-31,16,48
2016-10-31,17,5
2016-10-31,18,3
2016-10-31,19,7
2016-10-31,20,29
2016-10-31,21,30
2016-10-31,22,11
2016-10-31,23,7
2016-11-01,0,12
2016-11-01,1,14
2016-11-01,2,5
2016-11-01,3,1
2016-11-01,7,1
2016-11-01,8,8
2016-11-01,9,20
2016-11-01,10,29
2016-11-01,11,30
2016-11-01,12,15
2016-11-01,13,68
2016-11-01,14,17
2016-11-01,15,35
2016-11-01,16,20
2016-11-01,17,6
2016-11-01,18,8
2016-11-01,19,17
2016-11-01,20,36
2016-11-01,21,11
2016-11-01,22,4
2016-11-01,23,7
2016-11-02,0,7
2016-11-02,1,2
2016-11-02,2,5
2016-11-02,3,1
2016-11-02,8,12
2016-11-02,9,53
2016-11-02,10,35
2016-11-02,11,20
2016-11-02,12,29
2016-11-02,13,36
2016-11-02,14,49
2016-11-02,15,23
2016-11-02,16,8
2016-11-02,17,3
2016-11-02,19,14
2016-11-02,20,21
2016-11-02,21,12
2016-11-02,22,8
2016-11-02,23,1
2016-11-03,0,1
2016-11-03,1,3
2016-11-03,8,17
2016-11-03,9,49
2016-11-03,10,48
2016-11-03,11,25
2016-11-03,12,36
2016-11-03,13,62
2016-11-03,14,61
2016-11-03,15,41
2016-11-03,16,22
2016-11-03,17,24
2016-11-03,18,4
2016-11-03,19,25
2016-11-03,20,16
2016-11-03,21,16
2016-11-03,22,3
2016-11-03,23,6
2016-11-04,0,2
2016-11-04,1,7
2016-11-04,2,4
2016-11-04,8,6
2016-11-04,9,32
2016-11-04,10,38
2016-11-04,11,14
2016-11-04,12,41
2016-11-04,13,48
2016-11-04,14,43
2016-11-04,15,37
2016-11-04,16,26
2016-11-04,17,18
2016-11-04,18,1
2016-11-04,19,36
2016-11-04,20,33
2016-11-04,21,5
2016-11-04,22,6
2016-11-05,0,2
2016-11-05,1,4
2016-11-05,2,1
2016-11-05,8,20
2016-11-05,9,19
2016-11-05,10,30
2016-11-05,11,19
2016-11-05,12,30
2016-11-05,13,39
2016-11-05,14,36
2016-11-05,15,22
2016-11-05,16,33
2016-11-05,17,3
2016-11-05,18,6
2016-11-05,19,16
2016-11-05,20,16
2016-11-05,21,4
2016-11-05,22,3
2016-11-06,0,14
2016-11-06,1,4
2016-11-06,7,3
2016-11-06,8,12
2016-11-06,9,13
2016-11-06,10,7
2016-11-06,11,4
2016-11-06,12,25
2016-11-06,13,28
2016-11-06,14,13
2016-11-06,15,19
2016-11-06,16,7
2016-11-06,17,5
2016-11-06,19,17
2016-11-06,20,15
2016-11-06,21,15
2016-11-06,22,13
2016-11-06,23,8
2016-11-07,0,9
2016-11-07,1,2
2016-11-07,2,10
2016-11-07,8,7
2016-11-07,9,34
2016-11-07,10,24
2016-11-07,11,23
2016-11-07,12,35
2016-11-07,13,53
2016-11-07,14,57
2016-11-07,15,36
2016-11-07,16,25
2016-11-07,17,2
2016-11-07,19,23
2016-11-07,20,29
2016-11-07,21,15
2016-11-07,22,2
2016-11-07,23,2
2016-11-08,0,3
2016-11-08,1,2
2016-11-08,5,4
2016-11-08,8,4
2016-11-08,9,36
2016-11-08,10,32
2016-11-08,11,43
2016-11-08,12,47
2016-11-08,13,49
2016-11-08,14,48
2016-11-08,15,56
2016-11-08,16,35
2016-11-08,17,17
2016-11-08,19,13
2016-11-08,20,19
2016-11-08,21,10
2016-11-08,22,12
2016-11-09,1,12
2016-11-09,2,6
2016-11-09,5,4
2016-11-09,8,12
2016-11-09,9,24
2016-11-09,10,44
2016-11-09,11,34
2016-11-09,12,35
2016-11-09,13,63
2016-11-09,14,41
2016-11-09,15,32
2016-11-09,16,28
2016-11-09,17,7
2016-11-09,18,14
2016-11-09,19,7
2016-11-09,20,21
2016-11-09,21,24
2016-11-09,22,3
2016-11-10,0,3
2016-11-10,2,3
2016-11-10,3,4
2016-11-10,8,15
2016-11-10,9,36
2016-11-10,10,27
2016-11-10,11,27
2016-11-10,12,37
2016-11-10,13,50
2016-11-10,14,22
2016-11-10,15,15
2016-11-10,16,5
2016-11-10,17,3
2016-11-10,18,2
2016-11-10,19,17
2016-11-10,20,18
2016-11-10,21,18
2016-11-10,22,6
2016-11-10,23,2
2016-11-11,0,2
2016-11-11,1,8
2016-11-11,2,3
2016-11-11,8,10
2016-11-11,9,30
2016-11-11,10,29
2016-11-11,11,16
2016-11-11,12,18
2016-11-11,13,14
2016-11-11,14,29
2016-11-11,15,21
2016-11-11,16,6
2016-11-11,17,10
2016-11-11,18,5
2016-11-11,19,11
2016-11-11,20,12
2016-11-11,21,3
2016-11-11,22,4
2016-11-11,23,4
2016-11-12,3,1
2016-11-12,7,1
2016-11-12,8,9
2016-11-12,9,20
2016-11-12,10,46
2016-11-12,11,18
2016-11-12,12,13
2016-11-12,13,4
2016-11-12,14,14
2016-11-12,15,32
2016-11-12,16,14
2016-11-12,17,1
2016-11-12,19,5
2016-11-12,20,15
2016-11-12,21,5
2016-11-12,22,2
2016-11-12,23,7
2016-11-13,8,7
2016-11-13,9,16
2016-11-13,10,16
2016-11-13,11,27
2016-11-13,12,23
2016-11-13,13,15
2016-11-13,14,22
2016-11-13,15,23
2016-11-13,16,23
2016-11-13,17,3
2016-11-13,19,2
2016-11-13,20,5
2016-11-13,21,13
2016-11-13,22,2
2016-11-14,0,9
2016-11-14,3,1
2016-11-14,8,4
2016-11-14,9,15
2016-11-14,10,16
2016-11-14,11,15
2016-11-14,12,31
2016-11-14,13,22
2016-11-14,14,39
2016-11-14,15,28
2016-11-14,16,16
2016-11-14,17,2
2016-11-14,18,1
2016-11-14,19,19
2016-11-14,20,19
2016-11-14,21,28
2016-11-14,22,5
2016-11-14,23,10
2016-11-15,0,2
2016-11-15,1,1
2016-11-15,2,1
2016-11-15,8,6
2016-11-15,9,25
2016-11-15,10,40
2016-11-15,11,16
2016-11-15,12,41
2016-11-15,13,38
2016-11-15,14,49
2016-11-15,15,28
2016-11-15,16,20
2016-11-15,17,5
2016-11-15,19,2
2016-11-15,20,5
2016-11-15,21,9
2016-11-15,22,2
2016-11-15,23,3
2016-11-16,0,6
2016-11-16,1,2
2016-11-16,2,5
2016-11-16,3,2
2016-11-16,5,8
2016-11-16,6,1
2016-11-16,8,10
2016-11-16,9,25
2016-11-16,10,18
2016-11-16,11,27
2016-11-16,12,18
2016-11-16,13,12
2016-11-16,14,17
2016-11-16,15,17
2016-11-16,16,14
2016-11-16,17,5
2016-11-16,19,5
2016-11-16,20,25
2016-11-16,21,22
2016-11-16,22,5
2016-11-16,23,4
2016-11-17,0,15
2016-11-17,14,1
2016-11-17,15,4
2016-11-17,16,1
2016-11-17,18,5
2016-11-17,19,11
2016-11-17,20,18
2016-11-17,21,4
2016-11-18,1,5
2016-11-18,2,1
2016-11-18,8,12
2016-11-18,9,31
2016-11-18,10,18
2016-11-18,11,8
2016-11-18,12,14
2016-11-18,13,25
2016-11-18,14,33
2016-11-18,15,8
2016-11-18,16,15
2016-11-18,17,8
2016-11-18,19,9
2016-11-18,20,15
2016-11-18,21,7
2016-11-18,23,5
2016-11-19,0,2
2016-11-19,8,3
2016-11-19,9,1
2016-11-19,11,1
2016-11-19,12,1
2016-11-19,13,3
2016-11-19,14,8
2016-11-19,15,5
2016-11-19,20,3
2016-11-19,22,1
2016-11-20,1,1
2016-11-20,8,2
2016-11-20,9,7
2016-11-20,10,1
2016-11-20,12,3
2016-11-20,13,2
2016-11-20,14,7
2016-11-20,15,8
2016-11-20,16,5
2016-11-20,17,3
2016-11-20,19,1
2016-11-20,20,9
2016-11-20,21,3
2016-11-20,22,2
